{
  "cul_functions": {
    "0_ppm_to_GtC": {
      "cul_scope_id": 0,
      "name": "ppm_to_GtC",
      "cul_source_scope_id": 0,
      "reason": "definition",
      "loc": {
        "start": {
          "line": 6,
          "column": 26,
          "index": 164
        },
        "end": {
          "line": 6,
          "column": 45,
          "index": 183
        }
      },
      "inputs": [
        "ppm_to_GtC_in"
      ]
    },
    "0_ppm_to_GtC_in": {
      "cul_scope_id": 0,
      "name": "ppm_to_GtC_in",
      "cul_source_scope_id": 0,
      "reason": "input definition",
      "inputs": [
        "ppm_to_GtC_in"
      ]
    },
    "0_emissions_table": {
      "cul_scope_id": 0,
      "name": "emissions_table",
      "cul_source_scope_id": 0,
      "reason": "definition",
      "loc": {
        "start": {
          "line": 9,
          "column": 31,
          "index": 372
        },
        "end": {
          "line": 9,
          "column": 55,
          "index": 396
        }
      },
      "inputs": [
        "emissions_table_in"
      ]
    },
    "0_emissions_table_in": {
      "cul_scope_id": 0,
      "name": "emissions_table_in",
      "cul_source_scope_id": 0,
      "reason": "input definition",
      "inputs": [
        "emissions_table_in"
      ]
    },
    "0_emissions_rate": {
      "cul_scope_id": 0,
      "name": "emissions_rate",
      "cul_source_scope_id": 0,
      "reason": "definition",
      "loc": {
        "start": {
          "line": 11,
          "column": 30,
          "index": 429
        },
        "end": {
          "line": 11,
          "column": 99,
          "index": 498
        }
      },
      "inputs": [
        "emissions_table_in",
        "year_in"
      ]
    },
    "0_year_0": {
      "cul_scope_id": 0,
      "name": "year_0",
      "cul_source_scope_id": 0,
      "reason": "definition",
      "loc": {
        "start": {
          "line": 13,
          "column": 22,
          "index": 588
        },
        "end": {
          "line": 13,
          "column": 32,
          "index": 598
        }
      },
      "inputs": []
    },
    "0_temperature_0": {
      "cul_scope_id": 0,
      "name": "temperature_0",
      "cul_source_scope_id": 0,
      "reason": "definition",
      "loc": {
        "start": {
          "line": 14,
          "column": 29,
          "index": 629
        },
        "end": {
          "line": 14,
          "column": 40,
          "index": 640
        }
      },
      "inputs": []
    },
    "0_CO2_concentration_0": {
      "cul_scope_id": 0,
      "name": "CO2_concentration_0",
      "cul_source_scope_id": 0,
      "reason": "definition",
      "loc": {
        "start": {
          "line": 15,
          "column": 35,
          "index": 677
        },
        "end": {
          "line": 15,
          "column": 46,
          "index": 688
        }
      },
      "inputs": []
    },
    "0_climate_sensitivity": {
      "cul_scope_id": 0,
      "name": "climate_sensitivity",
      "cul_source_scope_id": 0,
      "reason": "definition",
      "loc": {
        "start": {
          "line": 17,
          "column": 35,
          "index": 726
        },
        "end": {
          "line": 17,
          "column": 63,
          "index": 754
        }
      },
      "inputs": [
        "climate_sensitivity_in"
      ]
    },
    "0_climate_sensitivity_in": {
      "cul_scope_id": 0,
      "name": "climate_sensitivity_in",
      "cul_source_scope_id": 0,
      "reason": "input definition",
      "inputs": [
        "climate_sensitivity_in"
      ]
    },
    "0_year": {
      "cul_scope_id": 0,
      "name": "year",
      "cul_source_scope_id": 0,
      "reason": "definition",
      "loc": {
        "start": {
          "line": 19,
          "column": 20,
          "index": 782
        },
        "end": {
          "line": 19,
          "column": 33,
          "index": 795
        }
      },
      "inputs": [
        "year_in"
      ]
    },
    "0_year_in": {
      "cul_scope_id": 0,
      "name": "year_in",
      "cul_source_scope_id": 0,
      "reason": "input definition",
      "inputs": [
        "year_in"
      ]
    },
    "0_absorption": {
      "cul_scope_id": 0,
      "name": "absorption",
      "cul_source_scope_id": 0,
      "reason": "definition",
      "loc": {
        "start": {
          "line": 21,
          "column": 26,
          "index": 824
        },
        "end": {
          "line": 21,
          "column": 55,
          "index": 853
        }
      },
      "inputs": [
        "emissions_table_in",
        "year_in"
      ]
    },
    "0_drawdown_factor": {
      "cul_scope_id": 0,
      "name": "drawdown_factor",
      "cul_source_scope_id": 0,
      "reason": "definition",
      "loc": {
        "start": {
          "line": 23,
          "column": 31,
          "index": 935
        },
        "end": {
          "line": 23,
          "column": 55,
          "index": 959
        }
      },
      "inputs": [
        "drawdown_factor_in"
      ]
    },
    "0_drawdown_factor_in": {
      "cul_scope_id": 0,
      "name": "drawdown_factor_in",
      "cul_source_scope_id": 0,
      "reason": "input definition",
      "inputs": [
        "drawdown_factor_in"
      ]
    },
    "0_drawdown": {
      "cul_scope_id": 0,
      "name": "drawdown",
      "cul_source_scope_id": 0,
      "reason": "definition",
      "loc": {
        "start": {
          "line": 25,
          "column": 24,
          "index": 986
        },
        "end": {
          "line": 26,
          "column": 58,
          "index": 1050
        }
      },
      "inputs": [
        "drawdown_factor_in",
        "year_in",
        "emissions_table_in",
        "ppm_to_GtC_in"
      ]
    },
    "0_CO2_concentration": {
      "cul_scope_id": 0,
      "name": "CO2_concentration",
      "cul_source_scope_id": 0,
      "reason": "definition",
      "loc": {
        "start": {
          "line": 28,
          "column": 33,
          "index": 1086
        },
        "end": {
          "line": 34,
          "column": 1,
          "index": 1255
        }
      },
      "inputs": [
        "year_in",
        "emissions_table_in",
        "drawdown_factor_in",
        "ppm_to_GtC_in"
      ]
    },
    "0_net_carbon": {
      "cul_scope_id": 0,
      "name": "net_carbon",
      "cul_source_scope_id": 0,
      "reason": "definition",
      "loc": {
        "start": {
          "line": 36,
          "column": 26,
          "index": 1284
        },
        "end": {
          "line": 37,
          "column": 59,
          "index": 1349
        }
      },
      "inputs": [
        "emissions_table_in",
        "year_in",
        "drawdown_factor_in",
        "ppm_to_GtC_in"
      ]
    },
    "0_CO2_concentration_delta": {
      "cul_scope_id": 0,
      "name": "CO2_concentration_delta",
      "cul_source_scope_id": 0,
      "reason": "definition",
      "loc": {
        "start": {
          "line": 39,
          "column": 39,
          "index": 1430
        },
        "end": {
          "line": 40,
          "column": 52,
          "index": 1488
        }
      },
      "inputs": [
        "emissions_table_in",
        "year_in",
        "drawdown_factor_in",
        "ppm_to_GtC_in"
      ]
    },
    "0_temperature": {
      "cul_scope_id": 0,
      "name": "temperature",
      "cul_source_scope_id": 0,
      "reason": "definition",
      "loc": {
        "start": {
          "line": 42,
          "column": 27,
          "index": 1648
        },
        "end": {
          "line": 42,
          "column": 70,
          "index": 1691
        }
      },
      "inputs": [
        "year_in",
        "emissions_table_in",
        "drawdown_factor_in",
        "ppm_to_GtC_in",
        "climate_sensitivity_in"
      ]
    },
    "0_concentration_factor": {
      "cul_scope_id": 0,
      "name": "concentration_factor",
      "cul_source_scope_id": 0,
      "reason": "definition",
      "loc": {
        "start": {
          "line": 44,
          "column": 36,
          "index": 1730
        },
        "end": {
          "line": 45,
          "column": 45,
          "index": 1781
        }
      },
      "inputs": [
        "year_in",
        "emissions_table_in",
        "drawdown_factor_in",
        "ppm_to_GtC_in"
      ]
    },
    "0_temperature_delta": {
      "cul_scope_id": 0,
      "name": "temperature_delta",
      "cul_source_scope_id": 0,
      "reason": "definition",
      "loc": {
        "start": {
          "line": 47,
          "column": 33,
          "index": 1817
        },
        "end": {
          "line": 48,
          "column": 59,
          "index": 1882
        }
      },
      "inputs": [
        "year_in",
        "emissions_table_in",
        "drawdown_factor_in",
        "ppm_to_GtC_in",
        "climate_sensitivity_in"
      ]
    }
  },
  "cul_links": [
    {
      "to": "0_ppm_to_GtC",
      "from": "0_ppm_to_GtC_in",
      "reason": "input"
    },
    {
      "to": "0_emissions_table",
      "from": "0_emissions_table_in",
      "reason": "input"
    },
    {
      "to": "0_emissions_rate",
      "from": "0_emissions_table",
      "reason": "call",
      "negs": [],
      "loc": {
        "start": {
          "line": 11,
          "column": 36,
          "index": 435
        },
        "end": {
          "line": 11,
          "column": 53,
          "index": 452
        }
      }
    },
    {
      "to": "0_emissions_rate",
      "from": "0_year",
      "reason": "call",
      "negs": [],
      "loc": {
        "start": {
          "line": 11,
          "column": 77,
          "index": 476
        },
        "end": {
          "line": 11,
          "column": 83,
          "index": 482
        }
      }
    },
    {
      "to": "0_climate_sensitivity",
      "from": "0_climate_sensitivity_in",
      "reason": "input"
    },
    {
      "to": "0_year",
      "from": "0_year_in",
      "reason": "input"
    },
    {
      "to": "0_absorption",
      "from": "0_emissions_rate",
      "reason": "call",
      "negs": [],
      "loc": {
        "start": {
          "line": 21,
          "column": 32,
          "index": 830
        },
        "end": {
          "line": 21,
          "column": 48,
          "index": 846
        }
      }
    },
    {
      "to": "0_drawdown_factor",
      "from": "0_drawdown_factor_in",
      "reason": "input"
    },
    {
      "to": "0_drawdown",
      "from": "0_drawdown_factor",
      "reason": "call",
      "negs": [],
      "loc": {
        "start": {
          "line": 26,
          "column": 2,
          "index": 994
        },
        "end": {
          "line": 26,
          "column": 19,
          "index": 1011
        }
      }
    },
    {
      "to": "0_drawdown",
      "from": "0_CO2_concentration",
      "reason": "call",
      "negs": [],
      "loc": {
        "start": {
          "line": 26,
          "column": 23,
          "index": 1015
        },
        "end": {
          "line": 26,
          "column": 42,
          "index": 1034
        }
      }
    },
    {
      "to": "0_drawdown",
      "from": "0_ppm_to_GtC",
      "reason": "call",
      "negs": [],
      "loc": {
        "start": {
          "line": 26,
          "column": 45,
          "index": 1037
        },
        "end": {
          "line": 26,
          "column": 57,
          "index": 1049
        }
      }
    },
    {
      "to": "0_CO2_concentration",
      "from": "0_year",
      "reason": "call",
      "negs": [],
      "loc": {
        "start": {
          "line": 29,
          "column": 6,
          "index": 1100
        },
        "end": {
          "line": 29,
          "column": 12,
          "index": 1106
        }
      }
    },
    {
      "to": "0_CO2_concentration",
      "from": "0_year_0",
      "reason": "call",
      "negs": [],
      "loc": {
        "start": {
          "line": 29,
          "column": 16,
          "index": 1110
        },
        "end": {
          "line": 29,
          "column": 24,
          "index": 1118
        }
      }
    },
    {
      "to": "0_CO2_concentration",
      "from": "0_CO2_concentration_0",
      "reason": "call",
      "negs": [],
      "loc": {
        "start": {
          "line": 29,
          "column": 33,
          "index": 1127
        },
        "end": {
          "line": 29,
          "column": 54,
          "index": 1148
        }
      }
    },
    {
      "to": "0_CO2_concentration",
      "from": "0_CO2_concentration",
      "reason": "call",
      "negs": [
        "year_in"
      ],
      "loc": {
        "start": {
          "line": 32,
          "column": 6,
          "index": 1176
        },
        "end": {
          "line": 32,
          "column": 48,
          "index": 1218
        }
      }
    },
    {
      "to": "0_CO2_concentration",
      "from": "0_year",
      "reason": "call",
      "negs": [],
      "loc": {
        "start": {
          "line": 32,
          "column": 35,
          "index": 1205
        },
        "end": {
          "line": 32,
          "column": 41,
          "index": 1211
        }
      }
    },
    {
      "to": "0_CO2_concentration",
      "from": "0_CO2_concentration_delta",
      "reason": "call",
      "negs": [],
      "loc": {
        "start": {
          "line": 32,
          "column": 51,
          "index": 1221
        },
        "end": {
          "line": 32,
          "column": 76,
          "index": 1246
        }
      }
    },
    {
      "to": "0_net_carbon",
      "from": "0_emissions_rate",
      "reason": "call",
      "negs": [],
      "loc": {
        "start": {
          "line": 37,
          "column": 15,
          "index": 1305
        },
        "end": {
          "line": 37,
          "column": 31,
          "index": 1321
        }
      }
    },
    {
      "to": "0_net_carbon",
      "from": "0_absorption",
      "reason": "call",
      "negs": [],
      "loc": {
        "start": {
          "line": 37,
          "column": 34,
          "index": 1324
        },
        "end": {
          "line": 37,
          "column": 46,
          "index": 1336
        }
      }
    },
    {
      "to": "0_net_carbon",
      "from": "0_drawdown",
      "reason": "call",
      "negs": [],
      "loc": {
        "start": {
          "line": 37,
          "column": 49,
          "index": 1339
        },
        "end": {
          "line": 37,
          "column": 59,
          "index": 1349
        }
      }
    },
    {
      "to": "0_CO2_concentration_delta",
      "from": "0_net_carbon",
      "reason": "call",
      "negs": [
        "year_in"
      ],
      "loc": {
        "start": {
          "line": 40,
          "column": 2,
          "index": 1438
        },
        "end": {
          "line": 40,
          "column": 37,
          "index": 1473
        }
      }
    },
    {
      "to": "0_CO2_concentration_delta",
      "from": "0_year",
      "reason": "call",
      "negs": [],
      "loc": {
        "start": {
          "line": 40,
          "column": 24,
          "index": 1460
        },
        "end": {
          "line": 40,
          "column": 30,
          "index": 1466
        }
      }
    },
    {
      "to": "0_CO2_concentration_delta",
      "from": "0_ppm_to_GtC",
      "reason": "call",
      "negs": [],
      "loc": {
        "start": {
          "line": 40,
          "column": 40,
          "index": 1476
        },
        "end": {
          "line": 40,
          "column": 52,
          "index": 1488
        }
      }
    },
    {
      "to": "0_temperature",
      "from": "0_temperature_0",
      "reason": "call",
      "negs": [],
      "loc": {
        "start": {
          "line": 42,
          "column": 33,
          "index": 1654
        },
        "end": {
          "line": 42,
          "column": 48,
          "index": 1669
        }
      }
    },
    {
      "to": "0_temperature",
      "from": "0_temperature_delta",
      "reason": "call",
      "negs": [],
      "loc": {
        "start": {
          "line": 42,
          "column": 51,
          "index": 1672
        },
        "end": {
          "line": 42,
          "column": 70,
          "index": 1691
        }
      }
    },
    {
      "to": "0_concentration_factor",
      "from": "0_CO2_concentration",
      "reason": "call",
      "negs": [],
      "loc": {
        "start": {
          "line": 45,
          "column": 2,
          "index": 1738
        },
        "end": {
          "line": 45,
          "column": 21,
          "index": 1757
        }
      }
    },
    {
      "to": "0_concentration_factor",
      "from": "0_CO2_concentration_0",
      "reason": "call",
      "negs": [],
      "loc": {
        "start": {
          "line": 45,
          "column": 24,
          "index": 1760
        },
        "end": {
          "line": 45,
          "column": 45,
          "index": 1781
        }
      }
    },
    {
      "to": "0_temperature_delta",
      "from": "0_concentration_factor",
      "reason": "call",
      "negs": [],
      "loc": {
        "start": {
          "line": 48,
          "column": 12,
          "index": 1835
        },
        "end": {
          "line": 48,
          "column": 34,
          "index": 1857
        }
      }
    },
    {
      "to": "0_temperature_delta",
      "from": "0_climate_sensitivity",
      "reason": "call",
      "negs": [],
      "loc": {
        "start": {
          "line": 48,
          "column": 38,
          "index": 1861
        },
        "end": {
          "line": 48,
          "column": 59,
          "index": 1882
        }
      }
    }
  ],
  "cul_scope_ids_to_resource": {
    "0": "./simple-climate-nomemo.cul.js"
  },
  "import_sources_to_resource": {},
  "cul_input_map": {
    "0_ppm_to_GtC": [
      "ppm_to_GtC_in"
    ],
    "0_ppm_to_GtC_in": [
      "ppm_to_GtC_in"
    ],
    "0_emissions_table": [
      "emissions_table_in"
    ],
    "0_emissions_table_in": [
      "emissions_table_in"
    ],
    "0_emissions_rate": [
      "emissions_table_in",
      "year_in"
    ],
    "0_year_0": [],
    "0_temperature_0": [],
    "0_CO2_concentration_0": [],
    "0_climate_sensitivity": [
      "climate_sensitivity_in"
    ],
    "0_climate_sensitivity_in": [
      "climate_sensitivity_in"
    ],
    "0_year": [
      "year_in"
    ],
    "0_year_in": [
      "year_in"
    ],
    "0_absorption": [
      "emissions_table_in",
      "year_in"
    ],
    "0_drawdown_factor": [
      "drawdown_factor_in"
    ],
    "0_drawdown_factor_in": [
      "drawdown_factor_in"
    ],
    "0_drawdown": [
      "drawdown_factor_in",
      "year_in",
      "emissions_table_in",
      "ppm_to_GtC_in"
    ],
    "0_CO2_concentration": [
      "year_in",
      "emissions_table_in",
      "drawdown_factor_in",
      "ppm_to_GtC_in"
    ],
    "0_net_carbon": [
      "emissions_table_in",
      "year_in",
      "drawdown_factor_in",
      "ppm_to_GtC_in"
    ],
    "0_CO2_concentration_delta": [
      "emissions_table_in",
      "year_in",
      "drawdown_factor_in",
      "ppm_to_GtC_in"
    ],
    "0_temperature": [
      "year_in",
      "emissions_table_in",
      "drawdown_factor_in",
      "ppm_to_GtC_in",
      "climate_sensitivity_in"
    ],
    "0_concentration_factor": [
      "year_in",
      "emissions_table_in",
      "drawdown_factor_in",
      "ppm_to_GtC_in"
    ],
    "0_temperature_delta": [
      "year_in",
      "emissions_table_in",
      "drawdown_factor_in",
      "ppm_to_GtC_in",
      "climate_sensitivity_in"
    ]
  },
  "dot": "digraph {\n  \"0_ppm_to_GtC\" [cul_scope_id=0,name=ppm_to_GtC,cul_source_scope_id=0,reason=definition,loc=\"[object Object]\",inputs=ppm_to_GtC_in,label=\"0_ppm_to_GtC inputs: ppm_to_GtC_in\"]\n  \"0_ppm_to_GtC_in\" [cul_scope_id=0,name=ppm_to_GtC_in,cul_source_scope_id=0,reason=\"input definition\",inputs=ppm_to_GtC_in,label=\"0_ppm_to_GtC_in inputs: ppm_to_GtC_in\"]\n  \"0_emissions_table\" [cul_scope_id=0,name=emissions_table,cul_source_scope_id=0,reason=definition,loc=\"[object Object]\",inputs=emissions_table_in,label=\"0_emissions_table inputs: emissions_table_in\"]\n  \"0_emissions_table_in\" [cul_scope_id=0,name=emissions_table_in,cul_source_scope_id=0,reason=\"input definition\",inputs=emissions_table_in,label=\"0_emissions_table_in inputs: emissions_table_in\"]\n  \"0_emissions_rate\" [cul_scope_id=0,name=emissions_rate,cul_source_scope_id=0,reason=definition,loc=\"[object Object]\",inputs=\"emissions_table_in,year_in\",label=\"0_emissions_rate inputs: emissions_table_in,year_in\"]\n  \"0_year_0\" [cul_scope_id=0,name=year_0,cul_source_scope_id=0,reason=definition,loc=\"[object Object]\",inputs=\"\",label=\"0_year_0 inputs: \"]\n  \"0_temperature_0\" [cul_scope_id=0,name=temperature_0,cul_source_scope_id=0,reason=definition,loc=\"[object Object]\",inputs=\"\",label=\"0_temperature_0 inputs: \"]\n  \"0_CO2_concentration_0\" [cul_scope_id=0,name=CO2_concentration_0,cul_source_scope_id=0,reason=definition,loc=\"[object Object]\",inputs=\"\",label=\"0_CO2_concentration_0 inputs: \"]\n  \"0_climate_sensitivity\" [cul_scope_id=0,name=climate_sensitivity,cul_source_scope_id=0,reason=definition,loc=\"[object Object]\",inputs=climate_sensitivity_in,label=\"0_climate_sensitivity inputs: climate_sensitivity_in\"]\n  \"0_climate_sensitivity_in\" [cul_scope_id=0,name=climate_sensitivity_in,cul_source_scope_id=0,reason=\"input definition\",inputs=climate_sensitivity_in,label=\"0_climate_sensitivity_in inputs: climate_sensitivity_in\"]\n  \"0_year\" [cul_scope_id=0,name=year,cul_source_scope_id=0,reason=definition,loc=\"[object Object]\",inputs=year_in,label=\"0_year inputs: year_in\"]\n  \"0_year_in\" [cul_scope_id=0,name=year_in,cul_source_scope_id=0,reason=\"input definition\",inputs=year_in,label=\"0_year_in inputs: year_in\"]\n  \"0_absorption\" [cul_scope_id=0,name=absorption,cul_source_scope_id=0,reason=definition,loc=\"[object Object]\",inputs=\"emissions_table_in,year_in\",label=\"0_absorption inputs: emissions_table_in,year_in\"]\n  \"0_drawdown_factor\" [cul_scope_id=0,name=drawdown_factor,cul_source_scope_id=0,reason=definition,loc=\"[object Object]\",inputs=drawdown_factor_in,label=\"0_drawdown_factor inputs: drawdown_factor_in\"]\n  \"0_drawdown_factor_in\" [cul_scope_id=0,name=drawdown_factor_in,cul_source_scope_id=0,reason=\"input definition\",inputs=drawdown_factor_in,label=\"0_drawdown_factor_in inputs: drawdown_factor_in\"]\n  \"0_drawdown\" [cul_scope_id=0,name=drawdown,cul_source_scope_id=0,reason=definition,loc=\"[object Object]\",inputs=\"drawdown_factor_in,year_in,emissions_table_in,ppm_to_GtC_in\",label=\"0_drawdown inputs: drawdown_factor_in,year_in,emissions_table_in,ppm_to_GtC_in\"]\n  \"0_CO2_concentration\" [cul_scope_id=0,name=CO2_concentration,cul_source_scope_id=0,reason=definition,loc=\"[object Object]\",inputs=\"year_in,emissions_table_in,drawdown_factor_in,ppm_to_GtC_in\",label=\"0_CO2_concentration inputs: year_in,emissions_table_in,drawdown_factor_in,ppm_to_GtC_in\"]\n  \"0_net_carbon\" [cul_scope_id=0,name=net_carbon,cul_source_scope_id=0,reason=definition,loc=\"[object Object]\",inputs=\"emissions_table_in,year_in,drawdown_factor_in,ppm_to_GtC_in\",label=\"0_net_carbon inputs: emissions_table_in,year_in,drawdown_factor_in,ppm_to_GtC_in\"]\n  \"0_CO2_concentration_delta\" [cul_scope_id=0,name=CO2_concentration_delta,cul_source_scope_id=0,reason=definition,loc=\"[object Object]\",inputs=\"emissions_table_in,year_in,drawdown_factor_in,ppm_to_GtC_in\",label=\"0_CO2_concentration_delta inputs: emissions_table_in,year_in,drawdown_factor_in,ppm_to_GtC_in\"]\n  \"0_temperature\" [cul_scope_id=0,name=temperature,cul_source_scope_id=0,reason=definition,loc=\"[object Object]\",inputs=\"year_in,emissions_table_in,drawdown_factor_in,ppm_to_GtC_in,climate_sensitivity_in\",label=\"0_temperature inputs: year_in,emissions_table_in,drawdown_factor_in,ppm_to_GtC_in,climate_sensitivity_in\"]\n  \"0_concentration_factor\" [cul_scope_id=0,name=concentration_factor,cul_source_scope_id=0,reason=definition,loc=\"[object Object]\",inputs=\"year_in,emissions_table_in,drawdown_factor_in,ppm_to_GtC_in\",label=\"0_concentration_factor inputs: year_in,emissions_table_in,drawdown_factor_in,ppm_to_GtC_in\"]\n  \"0_temperature_delta\" [cul_scope_id=0,name=temperature_delta,cul_source_scope_id=0,reason=definition,loc=\"[object Object]\",inputs=\"year_in,emissions_table_in,drawdown_factor_in,ppm_to_GtC_in,climate_sensitivity_in\",label=\"0_temperature_delta inputs: year_in,emissions_table_in,drawdown_factor_in,ppm_to_GtC_in,climate_sensitivity_in\"]\n  \"0_ppm_to_GtC_in\" -> \"0_ppm_to_GtC\" [value=\"[object Object]\",label=\"input +ppm_to_GtC_in\"]\n  \"0_emissions_table_in\" -> \"0_emissions_table\" [value=\"[object Object]\",label=\"input +emissions_table_in\"]\n  \"0_emissions_table\" -> \"0_emissions_rate\" [value=\"[object Object]\",label=\"call -\"]\n  \"0_year\" -> \"0_emissions_rate\" [value=\"[object Object]\",label=\"call -\"]\n  \"0_climate_sensitivity_in\" -> \"0_climate_sensitivity\" [value=\"[object Object]\",label=\"input +climate_sensitivity_in\"]\n  \"0_year_in\" -> \"0_year\" [value=\"[object Object]\",label=\"input +year_in\"]\n  \"0_emissions_rate\" -> \"0_absorption\" [value=\"[object Object]\",label=\"call -\"]\n  \"0_drawdown_factor_in\" -> \"0_drawdown_factor\" [value=\"[object Object]\",label=\"input +drawdown_factor_in\"]\n  \"0_drawdown_factor\" -> \"0_drawdown\" [value=\"[object Object]\",label=\"call -\"]\n  \"0_CO2_concentration\" -> \"0_drawdown\" [value=\"[object Object]\",label=\"call -\"]\n  \"0_ppm_to_GtC\" -> \"0_drawdown\" [value=\"[object Object]\",label=\"call -\"]\n  \"0_year\" -> \"0_CO2_concentration\" [value=\"[object Object]\",label=\"call -\"]\n  \"0_year_0\" -> \"0_CO2_concentration\" [value=\"[object Object]\",label=\"call -\"]\n  \"0_CO2_concentration_0\" -> \"0_CO2_concentration\" [value=\"[object Object]\",label=\"call -\"]\n  \"0_CO2_concentration\" -> \"0_CO2_concentration\" [value=\"[object Object]\",label=\"call -year_in\"]\n  \"0_CO2_concentration_delta\" -> \"0_CO2_concentration\" [value=\"[object Object]\",label=\"call -\"]\n  \"0_emissions_rate\" -> \"0_net_carbon\" [value=\"[object Object]\",label=\"call -\"]\n  \"0_absorption\" -> \"0_net_carbon\" [value=\"[object Object]\",label=\"call -\"]\n  \"0_drawdown\" -> \"0_net_carbon\" [value=\"[object Object]\",label=\"call -\"]\n  \"0_net_carbon\" -> \"0_CO2_concentration_delta\" [value=\"[object Object]\",label=\"call -year_in\"]\n  \"0_year\" -> \"0_CO2_concentration_delta\" [value=\"[object Object]\",label=\"call -\"]\n  \"0_ppm_to_GtC\" -> \"0_CO2_concentration_delta\" [value=\"[object Object]\",label=\"call -\"]\n  \"0_temperature_0\" -> \"0_temperature\" [value=\"[object Object]\",label=\"call -\"]\n  \"0_temperature_delta\" -> \"0_temperature\" [value=\"[object Object]\",label=\"call -\"]\n  \"0_CO2_concentration\" -> \"0_concentration_factor\" [value=\"[object Object]\",label=\"call -\"]\n  \"0_CO2_concentration_0\" -> \"0_concentration_factor\" [value=\"[object Object]\",label=\"call -\"]\n  \"0_concentration_factor\" -> \"0_temperature_delta\" [value=\"[object Object]\",label=\"call -\"]\n  \"0_climate_sensitivity\" -> \"0_temperature_delta\" [value=\"[object Object]\",label=\"call -\"]\n}\n",
  "memo_map": {}
}