{
  "cul_functions": {
    "0_x": {
      "cul_scope_id": 0,
      "name": "x",
      "cul_source_scope_id": 0,
      "reason": "definition",
      "loc": {
        "start": {
          "line": 5,
          "column": 17,
          "index": 296
        },
        "end": {
          "line": 5,
          "column": 56,
          "index": 335
        }
      },
      "inputs": [
        "p_in"
      ]
    },
    "0_y": {
      "cul_scope_id": 0,
      "name": "y",
      "cul_source_scope_id": 0,
      "reason": "definition",
      "loc": {
        "start": {
          "line": 6,
          "column": 17,
          "index": 413
        },
        "end": {
          "line": 6,
          "column": 56,
          "index": 452
        }
      },
      "inputs": [
        "p_in"
      ]
    },
    "0_p": {
      "cul_scope_id": 0,
      "name": "p",
      "cul_source_scope_id": 0,
      "reason": "definition",
      "loc": {
        "start": {
          "line": 8,
          "column": 17,
          "index": 472
        },
        "end": {
          "line": 8,
          "column": 27,
          "index": 482
        }
      },
      "inputs": [
        "p_in"
      ]
    },
    "0_p_in": {
      "cul_scope_id": 0,
      "name": "p_in",
      "cul_source_scope_id": 0,
      "reason": "input definition",
      "inputs": [
        "p_in"
      ]
    },
    "0_waveA": {
      "cul_scope_id": 0,
      "name": "waveA",
      "cul_source_scope_id": 0,
      "reason": "definition",
      "loc": {
        "start": {
          "line": 10,
          "column": 21,
          "index": 515
        },
        "end": {
          "line": 11,
          "column": 79,
          "index": 600
        }
      },
      "inputs": [
        "p_in"
      ]
    },
    "0_waveB": {
      "cul_scope_id": 0,
      "name": "waveB",
      "cul_source_scope_id": 0,
      "reason": "definition",
      "loc": {
        "start": {
          "line": 12,
          "column": 21,
          "index": 623
        },
        "end": {
          "line": 13,
          "column": 79,
          "index": 708
        }
      },
      "inputs": [
        "p_in"
      ]
    },
    "0_color": {
      "cul_scope_id": 0,
      "name": "color",
      "cul_source_scope_id": 0,
      "reason": "definition",
      "loc": {
        "start": {
          "line": 15,
          "column": 21,
          "index": 789
        },
        "end": {
          "line": 18,
          "column": 1,
          "index": 927
        }
      },
      "inputs": [
        "p_in"
      ]
    }
  },
  "cul_links": [
    {
      "to": "0_x",
      "from": "0_undefined",
      "reason": "call",
      "negs": []
    },
    {
      "to": "0_x",
      "from": "0_p",
      "reason": "call",
      "negs": []
    },
    {
      "to": "0_y",
      "from": "0_undefined",
      "reason": "call",
      "negs": []
    },
    {
      "to": "0_y",
      "from": "0_p",
      "reason": "call",
      "negs": []
    },
    {
      "to": "0_p",
      "from": "0_p_in",
      "reason": "input"
    },
    {
      "to": "0_waveA",
      "from": "0_x",
      "reason": "call",
      "negs": []
    },
    {
      "to": "0_waveA",
      "from": "0_x",
      "reason": "call",
      "negs": []
    },
    {
      "to": "0_waveA",
      "from": "0_x",
      "reason": "call",
      "negs": []
    },
    {
      "to": "0_waveB",
      "from": "0_x",
      "reason": "call",
      "negs": []
    },
    {
      "to": "0_waveB",
      "from": "0_x",
      "reason": "call",
      "negs": []
    },
    {
      "to": "0_waveB",
      "from": "0_x",
      "reason": "call",
      "negs": []
    },
    {
      "to": "0_color",
      "from": "0_y",
      "reason": "call",
      "negs": []
    },
    {
      "to": "0_color",
      "from": "0_waveA",
      "reason": "call",
      "negs": []
    },
    {
      "to": "0_color",
      "from": "0_waveB",
      "reason": "call",
      "negs": []
    },
    {
      "to": "0_color",
      "from": "0_waveA",
      "reason": "call",
      "negs": []
    }
  ],
  "cul_scope_ids_to_resource": {
    "0": "./copacabana-nomemo.cul.js"
  },
  "import_sources_to_resource": {},
  "cul_input_map": {
    "0_x": [
      "p_in"
    ],
    "0_y": [
      "p_in"
    ],
    "0_p": [
      "p_in"
    ],
    "0_p_in": [
      "p_in"
    ],
    "0_waveA": [
      "p_in"
    ],
    "0_waveB": [
      "p_in"
    ],
    "0_color": [
      "p_in"
    ]
  },
  "dot": "digraph {\n  \"0_x\" [cul_scope_id=0,name=x,cul_source_scope_id=0,reason=definition,loc=\"[object Object]\",inputs=p_in,label=\"0_x inputs: p_in\"]\n  \"0_y\" [cul_scope_id=0,name=y,cul_source_scope_id=0,reason=definition,loc=\"[object Object]\",inputs=p_in,label=\"0_y inputs: p_in\"]\n  \"0_p\" [cul_scope_id=0,name=p,cul_source_scope_id=0,reason=definition,loc=\"[object Object]\",inputs=p_in,label=\"0_p inputs: p_in\"]\n  \"0_p_in\" [cul_scope_id=0,name=p_in,cul_source_scope_id=0,reason=\"input definition\",inputs=p_in,label=\"0_p_in inputs: p_in\"]\n  \"0_waveA\" [cul_scope_id=0,name=waveA,cul_source_scope_id=0,reason=definition,loc=\"[object Object]\",inputs=p_in,label=\"0_waveA inputs: p_in\"]\n  \"0_waveB\" [cul_scope_id=0,name=waveB,cul_source_scope_id=0,reason=definition,loc=\"[object Object]\",inputs=p_in,label=\"0_waveB inputs: p_in\"]\n  \"0_color\" [cul_scope_id=0,name=color,cul_source_scope_id=0,reason=definition,loc=\"[object Object]\",inputs=p_in,label=\"0_color inputs: p_in\"]\n  \"0_p\" -> \"0_x\" [value=\"[object Object]\",label=\"call -\"]\n  \"0_p\" -> \"0_y\" [value=\"[object Object]\",label=\"call -\"]\n  \"0_p_in\" -> \"0_p\" [value=\"[object Object]\",label=\"input +p_in\"]\n  \"0_x\" -> \"0_waveA\" [value=\"[object Object]\",label=\"call -\"]\n  \"0_x\" -> \"0_waveB\" [value=\"[object Object]\",label=\"call -\"]\n  \"0_y\" -> \"0_color\" [value=\"[object Object]\",label=\"call -\"]\n  \"0_waveA\" -> \"0_color\" [value=\"[object Object]\",label=\"call -\"]\n  \"0_waveB\" -> \"0_color\" [value=\"[object Object]\",label=\"call -\"]\n}\n",
  "memo_map": {}
}