{
  "cul_functions": {
    "0_value": {
      "cul_scope_id": 0,
      "name": "value",
      "cul_source_scope_id": 0,
      "reason": "definition",
      "loc": {
        "start": {
          "line": 7,
          "column": 21,
          "index": 281
        },
        "end": {
          "line": 7,
          "column": 43,
          "index": 303
        }
      },
      "inputs": [
        "maze_in",
        "y_in",
        "x_in"
      ]
    },
    "0_max": {
      "cul_scope_id": 0,
      "name": "max",
      "cul_source_scope_id": 0,
      "reason": "definition",
      "loc": {
        "start": {
          "line": 14,
          "column": 19,
          "index": 552
        },
        "end": {
          "line": 20,
          "column": 1,
          "index": 815
        }
      },
      "inputs": [
        "x_in",
        "y_in",
        "maze_in"
      ]
    },
    "0_arrow": {
      "cul_scope_id": 0,
      "name": "arrow",
      "cul_source_scope_id": 0,
      "reason": "definition",
      "loc": {
        "start": {
          "line": 23,
          "column": 21,
          "index": 864
        },
        "end": {
          "line": 27,
          "column": 1,
          "index": 1009
        }
      },
      "inputs": [
        "x_in",
        "y_in",
        "maze_in"
      ]
    },
    "0_arrow_path": {
      "cul_scope_id": 0,
      "name": "arrow_path",
      "cul_source_scope_id": 0,
      "reason": "definition",
      "loc": {
        "start": {
          "line": 30,
          "column": 26,
          "index": 1090
        },
        "end": {
          "line": 38,
          "column": 1,
          "index": 1443
        }
      },
      "inputs": [
        "x_in",
        "y_in",
        "maze_in"
      ]
    },
    "0_pointed_at_from_below": {
      "cul_scope_id": 0,
      "name": "pointed_at_from_below",
      "cul_source_scope_id": 0,
      "reason": "definition",
      "loc": {
        "start": {
          "line": 41,
          "column": 37,
          "index": 1507
        },
        "end": {
          "line": 41,
          "column": 79,
          "index": 1549
        }
      },
      "inputs": [
        "x_in",
        "y_in",
        "maze_in"
      ]
    },
    "0_pointed_at_from_right": {
      "cul_scope_id": 0,
      "name": "pointed_at_from_right",
      "cul_source_scope_id": 0,
      "reason": "definition",
      "loc": {
        "start": {
          "line": 42,
          "column": 37,
          "index": 1588
        },
        "end": {
          "line": 42,
          "column": 79,
          "index": 1630
        }
      },
      "inputs": [
        "x_in",
        "y_in",
        "maze_in"
      ]
    },
    "0_arrow_path_pretty": {
      "cul_scope_id": 0,
      "name": "arrow_path_pretty",
      "cul_source_scope_id": 0,
      "reason": "definition",
      "loc": {
        "start": {
          "line": 47,
          "column": 33,
          "index": 1770
        },
        "end": {
          "line": 51,
          "column": 1,
          "index": 1945
        }
      },
      "inputs": [
        "x_in",
        "y_in",
        "maze_in"
      ]
    },
    "0_maze": {
      "cul_scope_id": 0,
      "name": "maze",
      "cul_source_scope_id": 0,
      "reason": "definition",
      "loc": {
        "start": {
          "line": 57,
          "column": 20,
          "index": 2278
        },
        "end": {
          "line": 57,
          "column": 33,
          "index": 2291
        }
      },
      "inputs": [
        "maze_in"
      ]
    },
    "0_maze_in": {
      "cul_scope_id": 0,
      "name": "maze_in",
      "cul_source_scope_id": 0,
      "reason": "input definition",
      "inputs": [
        "maze_in"
      ]
    },
    "0_x": {
      "cul_scope_id": 0,
      "name": "x",
      "cul_source_scope_id": 0,
      "reason": "definition",
      "loc": {
        "start": {
          "line": 58,
          "column": 17,
          "index": 2310
        },
        "end": {
          "line": 58,
          "column": 27,
          "index": 2320
        }
      },
      "inputs": [
        "x_in"
      ]
    },
    "0_x_in": {
      "cul_scope_id": 0,
      "name": "x_in",
      "cul_source_scope_id": 0,
      "reason": "input definition",
      "inputs": [
        "x_in"
      ]
    },
    "0_y": {
      "cul_scope_id": 0,
      "name": "y",
      "cul_source_scope_id": 0,
      "reason": "definition",
      "loc": {
        "start": {
          "line": 59,
          "column": 17,
          "index": 2339
        },
        "end": {
          "line": 59,
          "column": 27,
          "index": 2349
        }
      },
      "inputs": [
        "y_in"
      ]
    },
    "0_y_in": {
      "cul_scope_id": 0,
      "name": "y_in",
      "cul_source_scope_id": 0,
      "reason": "input definition",
      "inputs": [
        "y_in"
      ]
    }
  },
  "cul_links": [
    {
      "to": "0_value",
      "from": "0_maze",
      "reason": "call",
      "negs": [],
      "loc": {
        "start": {
          "line": 7,
          "column": 27,
          "index": 287
        },
        "end": {
          "line": 7,
          "column": 33,
          "index": 293
        }
      }
    },
    {
      "to": "0_value",
      "from": "0_y",
      "reason": "call",
      "negs": [],
      "loc": {
        "start": {
          "line": 7,
          "column": 34,
          "index": 294
        },
        "end": {
          "line": 7,
          "column": 37,
          "index": 297
        }
      }
    },
    {
      "to": "0_value",
      "from": "0_x",
      "reason": "call",
      "negs": [],
      "loc": {
        "start": {
          "line": 7,
          "column": 39,
          "index": 299
        },
        "end": {
          "line": 7,
          "column": 42,
          "index": 302
        }
      }
    },
    {
      "to": "0_max",
      "from": "0_x",
      "reason": "call",
      "negs": [],
      "loc": {
        "start": {
          "line": 15,
          "column": 6,
          "index": 566
        },
        "end": {
          "line": 15,
          "column": 9,
          "index": 569
        }
      }
    },
    {
      "to": "0_max",
      "from": "0_y",
      "reason": "call",
      "negs": [],
      "loc": {
        "start": {
          "line": 15,
          "column": 18,
          "index": 578
        },
        "end": {
          "line": 15,
          "column": 21,
          "index": 581
        }
      }
    },
    {
      "to": "0_max",
      "from": "0_value",
      "reason": "call",
      "negs": [],
      "loc": {
        "start": {
          "line": 15,
          "column": 35,
          "index": 595
        },
        "end": {
          "line": 15,
          "column": 42,
          "index": 602
        }
      }
    },
    {
      "to": "0_max",
      "from": "0_x",
      "reason": "call",
      "negs": [],
      "loc": {
        "start": {
          "line": 16,
          "column": 11,
          "index": 615
        },
        "end": {
          "line": 16,
          "column": 14,
          "index": 618
        }
      }
    },
    {
      "to": "0_max",
      "from": "0_max",
      "reason": "call",
      "negs": [
        "y_in"
      ],
      "loc": {
        "start": {
          "line": 16,
          "column": 28,
          "index": 632
        },
        "end": {
          "line": 16,
          "column": 50,
          "index": 654
        }
      }
    },
    {
      "to": "0_max",
      "from": "0_y",
      "reason": "call",
      "negs": [],
      "loc": {
        "start": {
          "line": 16,
          "column": 40,
          "index": 644
        },
        "end": {
          "line": 16,
          "column": 43,
          "index": 647
        }
      }
    },
    {
      "to": "0_max",
      "from": "0_value",
      "reason": "call",
      "negs": [],
      "loc": {
        "start": {
          "line": 16,
          "column": 53,
          "index": 657
        },
        "end": {
          "line": 16,
          "column": 60,
          "index": 664
        }
      }
    },
    {
      "to": "0_max",
      "from": "0_y",
      "reason": "call",
      "negs": [],
      "loc": {
        "start": {
          "line": 17,
          "column": 11,
          "index": 677
        },
        "end": {
          "line": 17,
          "column": 14,
          "index": 680
        }
      }
    },
    {
      "to": "0_max",
      "from": "0_max",
      "reason": "call",
      "negs": [
        "x_in"
      ],
      "loc": {
        "start": {
          "line": 17,
          "column": 28,
          "index": 694
        },
        "end": {
          "line": 17,
          "column": 50,
          "index": 716
        }
      }
    },
    {
      "to": "0_max",
      "from": "0_x",
      "reason": "call",
      "negs": [],
      "loc": {
        "start": {
          "line": 17,
          "column": 40,
          "index": 706
        },
        "end": {
          "line": 17,
          "column": 43,
          "index": 709
        }
      }
    },
    {
      "to": "0_max",
      "from": "0_value",
      "reason": "call",
      "negs": [],
      "loc": {
        "start": {
          "line": 17,
          "column": 53,
          "index": 719
        },
        "end": {
          "line": 17,
          "column": 60,
          "index": 726
        }
      }
    },
    {
      "to": "0_max",
      "from": "0_max",
      "reason": "call",
      "negs": [
        "y_in"
      ],
      "loc": {
        "start": {
          "line": 19,
          "column": 20,
          "index": 755
        },
        "end": {
          "line": 19,
          "column": 42,
          "index": 777
        }
      }
    },
    {
      "to": "0_max",
      "from": "0_y",
      "reason": "call",
      "negs": [],
      "loc": {
        "start": {
          "line": 19,
          "column": 32,
          "index": 767
        },
        "end": {
          "line": 19,
          "column": 35,
          "index": 770
        }
      }
    },
    {
      "to": "0_max",
      "from": "0_max",
      "reason": "call",
      "negs": [
        "x_in"
      ],
      "loc": {
        "start": {
          "line": 19,
          "column": 44,
          "index": 779
        },
        "end": {
          "line": 19,
          "column": 66,
          "index": 801
        }
      }
    },
    {
      "to": "0_max",
      "from": "0_x",
      "reason": "call",
      "negs": [],
      "loc": {
        "start": {
          "line": 19,
          "column": 56,
          "index": 791
        },
        "end": {
          "line": 19,
          "column": 59,
          "index": 794
        }
      }
    },
    {
      "to": "0_max",
      "from": "0_value",
      "reason": "call",
      "negs": [],
      "loc": {
        "start": {
          "line": 19,
          "column": 70,
          "index": 805
        },
        "end": {
          "line": 19,
          "column": 77,
          "index": 812
        }
      }
    },
    {
      "to": "0_arrow",
      "from": "0_x",
      "reason": "call",
      "negs": [],
      "loc": {
        "start": {
          "line": 24,
          "column": 6,
          "index": 878
        },
        "end": {
          "line": 24,
          "column": 9,
          "index": 881
        }
      }
    },
    {
      "to": "0_arrow",
      "from": "0_y",
      "reason": "call",
      "negs": [],
      "loc": {
        "start": {
          "line": 25,
          "column": 11,
          "index": 911
        },
        "end": {
          "line": 25,
          "column": 14,
          "index": 914
        }
      }
    },
    {
      "to": "0_arrow",
      "from": "0_max",
      "reason": "call",
      "negs": [
        "y_in"
      ],
      "loc": {
        "start": {
          "line": 26,
          "column": 14,
          "index": 947
        },
        "end": {
          "line": 26,
          "column": 36,
          "index": 969
        }
      }
    },
    {
      "to": "0_arrow",
      "from": "0_y",
      "reason": "call",
      "negs": [],
      "loc": {
        "start": {
          "line": 26,
          "column": 26,
          "index": 959
        },
        "end": {
          "line": 26,
          "column": 29,
          "index": 962
        }
      }
    },
    {
      "to": "0_arrow",
      "from": "0_max",
      "reason": "call",
      "negs": [
        "x_in"
      ],
      "loc": {
        "start": {
          "line": 26,
          "column": 39,
          "index": 972
        },
        "end": {
          "line": 26,
          "column": 61,
          "index": 994
        }
      }
    },
    {
      "to": "0_arrow",
      "from": "0_x",
      "reason": "call",
      "negs": [],
      "loc": {
        "start": {
          "line": 26,
          "column": 51,
          "index": 984
        },
        "end": {
          "line": 26,
          "column": 54,
          "index": 987
        }
      }
    },
    {
      "to": "0_arrow_path",
      "from": "0_x",
      "reason": "call",
      "negs": [],
      "loc": {
        "start": {
          "line": 31,
          "column": 6,
          "index": 1104
        },
        "end": {
          "line": 31,
          "column": 9,
          "index": 1107
        }
      }
    },
    {
      "to": "0_arrow_path",
      "from": "0_y",
      "reason": "call",
      "negs": [],
      "loc": {
        "start": {
          "line": 31,
          "column": 19,
          "index": 1117
        },
        "end": {
          "line": 31,
          "column": 22,
          "index": 1120
        }
      }
    },
    {
      "to": "0_arrow_path",
      "from": "0_arrow",
      "reason": "call",
      "negs": [],
      "loc": {
        "start": {
          "line": 31,
          "column": 37,
          "index": 1135
        },
        "end": {
          "line": 31,
          "column": 44,
          "index": 1142
        }
      }
    },
    {
      "to": "0_arrow_path",
      "from": "0_x",
      "reason": "call",
      "negs": [],
      "loc": {
        "start": {
          "line": 32,
          "column": 11,
          "index": 1155
        },
        "end": {
          "line": 32,
          "column": 14,
          "index": 1158
        }
      }
    },
    {
      "to": "0_arrow_path",
      "from": "0_pointed_at_from_below",
      "reason": "call",
      "negs": [],
      "loc": {
        "start": {
          "line": 32,
          "column": 24,
          "index": 1168
        },
        "end": {
          "line": 32,
          "column": 47,
          "index": 1191
        }
      }
    },
    {
      "to": "0_arrow_path",
      "from": "0_arrow",
      "reason": "call",
      "negs": [],
      "loc": {
        "start": {
          "line": 32,
          "column": 56,
          "index": 1200
        },
        "end": {
          "line": 32,
          "column": 63,
          "index": 1207
        }
      }
    },
    {
      "to": "0_arrow_path",
      "from": "0_y",
      "reason": "call",
      "negs": [],
      "loc": {
        "start": {
          "line": 33,
          "column": 11,
          "index": 1220
        },
        "end": {
          "line": 33,
          "column": 14,
          "index": 1223
        }
      }
    },
    {
      "to": "0_arrow_path",
      "from": "0_pointed_at_from_right",
      "reason": "call",
      "negs": [],
      "loc": {
        "start": {
          "line": 33,
          "column": 24,
          "index": 1233
        },
        "end": {
          "line": 33,
          "column": 47,
          "index": 1256
        }
      }
    },
    {
      "to": "0_arrow_path",
      "from": "0_arrow",
      "reason": "call",
      "negs": [],
      "loc": {
        "start": {
          "line": 33,
          "column": 56,
          "index": 1265
        },
        "end": {
          "line": 33,
          "column": 63,
          "index": 1272
        }
      }
    },
    {
      "to": "0_arrow_path",
      "from": "0_x",
      "reason": "call",
      "negs": [],
      "loc": {
        "start": {
          "line": 34,
          "column": 11,
          "index": 1285
        },
        "end": {
          "line": 34,
          "column": 14,
          "index": 1288
        }
      }
    },
    {
      "to": "0_arrow_path",
      "from": "0_y",
      "reason": "call",
      "negs": [],
      "loc": {
        "start": {
          "line": 34,
          "column": 24,
          "index": 1298
        },
        "end": {
          "line": 34,
          "column": 27,
          "index": 1301
        }
      }
    },
    {
      "to": "0_arrow_path",
      "from": "0_pointed_at_from_right",
      "reason": "call",
      "negs": [],
      "loc": {
        "start": {
          "line": 35,
          "column": 11,
          "index": 1331
        },
        "end": {
          "line": 35,
          "column": 34,
          "index": 1354
        }
      }
    },
    {
      "to": "0_arrow_path",
      "from": "0_arrow",
      "reason": "call",
      "negs": [],
      "loc": {
        "start": {
          "line": 35,
          "column": 43,
          "index": 1363
        },
        "end": {
          "line": 35,
          "column": 50,
          "index": 1370
        }
      }
    },
    {
      "to": "0_arrow_path",
      "from": "0_pointed_at_from_below",
      "reason": "call",
      "negs": [],
      "loc": {
        "start": {
          "line": 36,
          "column": 11,
          "index": 1383
        },
        "end": {
          "line": 36,
          "column": 34,
          "index": 1406
        }
      }
    },
    {
      "to": "0_arrow_path",
      "from": "0_arrow",
      "reason": "call",
      "negs": [],
      "loc": {
        "start": {
          "line": 36,
          "column": 43,
          "index": 1415
        },
        "end": {
          "line": 36,
          "column": 50,
          "index": 1422
        }
      }
    },
    {
      "to": "0_pointed_at_from_below",
      "from": "0_arrow_path",
      "reason": "call",
      "negs": [
        "y_in"
      ],
      "loc": {
        "start": {
          "line": 41,
          "column": 43,
          "index": 1513
        },
        "end": {
          "line": 41,
          "column": 72,
          "index": 1542
        }
      }
    },
    {
      "to": "0_pointed_at_from_below",
      "from": "0_y",
      "reason": "call",
      "negs": [],
      "loc": {
        "start": {
          "line": 41,
          "column": 62,
          "index": 1532
        },
        "end": {
          "line": 41,
          "column": 65,
          "index": 1535
        }
      }
    },
    {
      "to": "0_pointed_at_from_right",
      "from": "0_arrow_path",
      "reason": "call",
      "negs": [
        "x_in"
      ],
      "loc": {
        "start": {
          "line": 42,
          "column": 43,
          "index": 1594
        },
        "end": {
          "line": 42,
          "column": 72,
          "index": 1623
        }
      }
    },
    {
      "to": "0_pointed_at_from_right",
      "from": "0_x",
      "reason": "call",
      "negs": [],
      "loc": {
        "start": {
          "line": 42,
          "column": 62,
          "index": 1613
        },
        "end": {
          "line": 42,
          "column": 65,
          "index": 1616
        }
      }
    },
    {
      "to": "0_arrow_path_pretty",
      "from": "0_x",
      "reason": "call",
      "negs": [],
      "loc": {
        "start": {
          "line": 48,
          "column": 6,
          "index": 1784
        },
        "end": {
          "line": 48,
          "column": 9,
          "index": 1787
        }
      }
    },
    {
      "to": "0_arrow_path_pretty",
      "from": "0_y",
      "reason": "call",
      "negs": [],
      "loc": {
        "start": {
          "line": 48,
          "column": 18,
          "index": 1796
        },
        "end": {
          "line": 48,
          "column": 21,
          "index": 1799
        }
      }
    },
    {
      "to": "0_arrow_path_pretty",
      "from": "0_x",
      "reason": "call",
      "negs": [],
      "loc": {
        "start": {
          "line": 49,
          "column": 11,
          "index": 1830
        },
        "end": {
          "line": 49,
          "column": 14,
          "index": 1833
        }
      }
    },
    {
      "to": "0_arrow_path_pretty",
      "from": "0_y",
      "reason": "call",
      "negs": [],
      "loc": {
        "start": {
          "line": 49,
          "column": 24,
          "index": 1843
        },
        "end": {
          "line": 49,
          "column": 27,
          "index": 1846
        }
      }
    },
    {
      "to": "0_arrow_path_pretty",
      "from": "0_arrow_path",
      "reason": "call",
      "negs": [],
      "loc": {
        "start": {
          "line": 50,
          "column": 14,
          "index": 1881
        },
        "end": {
          "line": 50,
          "column": 26,
          "index": 1893
        }
      }
    },
    {
      "to": "0_arrow_path_pretty",
      "from": "0_arrow_path",
      "reason": "call",
      "negs": [],
      "loc": {
        "start": {
          "line": 50,
          "column": 43,
          "index": 1910
        },
        "end": {
          "line": 50,
          "column": 55,
          "index": 1922
        }
      }
    },
    {
      "to": "0_maze",
      "from": "0_maze_in",
      "reason": "input"
    },
    {
      "to": "0_x",
      "from": "0_x_in",
      "reason": "input"
    },
    {
      "to": "0_y",
      "from": "0_y_in",
      "reason": "input"
    }
  ],
  "cul_scope_ids_to_resource": {
    "0": "./maze-nomemo.cul.js"
  },
  "import_sources_to_resource": {},
  "cul_input_map": {
    "0_value": [
      "maze_in",
      "y_in",
      "x_in"
    ],
    "0_max": [
      "x_in",
      "y_in",
      "maze_in"
    ],
    "0_arrow": [
      "x_in",
      "y_in",
      "maze_in"
    ],
    "0_arrow_path": [
      "x_in",
      "y_in",
      "maze_in"
    ],
    "0_pointed_at_from_below": [
      "x_in",
      "y_in",
      "maze_in"
    ],
    "0_pointed_at_from_right": [
      "x_in",
      "y_in",
      "maze_in"
    ],
    "0_arrow_path_pretty": [
      "x_in",
      "y_in",
      "maze_in"
    ],
    "0_maze": [
      "maze_in"
    ],
    "0_maze_in": [
      "maze_in"
    ],
    "0_x": [
      "x_in"
    ],
    "0_x_in": [
      "x_in"
    ],
    "0_y": [
      "y_in"
    ],
    "0_y_in": [
      "y_in"
    ]
  },
  "dot": "digraph {\n  \"0_value\" [cul_scope_id=0,name=value,cul_source_scope_id=0,reason=definition,loc=\"[object Object]\",inputs=\"maze_in,y_in,x_in\",label=\"0_value inputs: maze_in,y_in,x_in\"]\n  \"0_max\" [cul_scope_id=0,name=max,cul_source_scope_id=0,reason=definition,loc=\"[object Object]\",inputs=\"x_in,y_in,maze_in\",label=\"0_max inputs: x_in,y_in,maze_in\"]\n  \"0_arrow\" [cul_scope_id=0,name=arrow,cul_source_scope_id=0,reason=definition,loc=\"[object Object]\",inputs=\"x_in,y_in,maze_in\",label=\"0_arrow inputs: x_in,y_in,maze_in\"]\n  \"0_arrow_path\" [cul_scope_id=0,name=arrow_path,cul_source_scope_id=0,reason=definition,loc=\"[object Object]\",inputs=\"x_in,y_in,maze_in\",label=\"0_arrow_path inputs: x_in,y_in,maze_in\"]\n  \"0_pointed_at_from_below\" [cul_scope_id=0,name=pointed_at_from_below,cul_source_scope_id=0,reason=definition,loc=\"[object Object]\",inputs=\"x_in,y_in,maze_in\",label=\"0_pointed_at_from_below inputs: x_in,y_in,maze_in\"]\n  \"0_pointed_at_from_right\" [cul_scope_id=0,name=pointed_at_from_right,cul_source_scope_id=0,reason=definition,loc=\"[object Object]\",inputs=\"x_in,y_in,maze_in\",label=\"0_pointed_at_from_right inputs: x_in,y_in,maze_in\"]\n  \"0_arrow_path_pretty\" [cul_scope_id=0,name=arrow_path_pretty,cul_source_scope_id=0,reason=definition,loc=\"[object Object]\",inputs=\"x_in,y_in,maze_in\",label=\"0_arrow_path_pretty inputs: x_in,y_in,maze_in\"]\n  \"0_maze\" [cul_scope_id=0,name=maze,cul_source_scope_id=0,reason=definition,loc=\"[object Object]\",inputs=maze_in,label=\"0_maze inputs: maze_in\"]\n  \"0_maze_in\" [cul_scope_id=0,name=maze_in,cul_source_scope_id=0,reason=\"input definition\",inputs=maze_in,label=\"0_maze_in inputs: maze_in\"]\n  \"0_x\" [cul_scope_id=0,name=x,cul_source_scope_id=0,reason=definition,loc=\"[object Object]\",inputs=x_in,label=\"0_x inputs: x_in\"]\n  \"0_x_in\" [cul_scope_id=0,name=x_in,cul_source_scope_id=0,reason=\"input definition\",inputs=x_in,label=\"0_x_in inputs: x_in\"]\n  \"0_y\" [cul_scope_id=0,name=y,cul_source_scope_id=0,reason=definition,loc=\"[object Object]\",inputs=y_in,label=\"0_y inputs: y_in\"]\n  \"0_y_in\" [cul_scope_id=0,name=y_in,cul_source_scope_id=0,reason=\"input definition\",inputs=y_in,label=\"0_y_in inputs: y_in\"]\n  \"0_maze\" -> \"0_value\" [value=\"[object Object]\",label=\"call -\"]\n  \"0_y\" -> \"0_value\" [value=\"[object Object]\",label=\"call -\"]\n  \"0_x\" -> \"0_value\" [value=\"[object Object]\",label=\"call -\"]\n  \"0_x\" -> \"0_max\" [value=\"[object Object]\",label=\"call -\"]\n  \"0_y\" -> \"0_max\" [value=\"[object Object]\",label=\"call -\"]\n  \"0_value\" -> \"0_max\" [value=\"[object Object]\",label=\"call -\"]\n  \"0_max\" -> \"0_max\" [value=\"[object Object]\",label=\"call -x_in\"]\n  \"0_x\" -> \"0_arrow\" [value=\"[object Object]\",label=\"call -\"]\n  \"0_y\" -> \"0_arrow\" [value=\"[object Object]\",label=\"call -\"]\n  \"0_max\" -> \"0_arrow\" [value=\"[object Object]\",label=\"call -x_in\"]\n  \"0_x\" -> \"0_arrow_path\" [value=\"[object Object]\",label=\"call -\"]\n  \"0_y\" -> \"0_arrow_path\" [value=\"[object Object]\",label=\"call -\"]\n  \"0_arrow\" -> \"0_arrow_path\" [value=\"[object Object]\",label=\"call -\"]\n  \"0_pointed_at_from_below\" -> \"0_arrow_path\" [value=\"[object Object]\",label=\"call -\"]\n  \"0_pointed_at_from_right\" -> \"0_arrow_path\" [value=\"[object Object]\",label=\"call -\"]\n  \"0_arrow_path\" -> \"0_pointed_at_from_below\" [value=\"[object Object]\",label=\"call -y_in\"]\n  \"0_y\" -> \"0_pointed_at_from_below\" [value=\"[object Object]\",label=\"call -\"]\n  \"0_arrow_path\" -> \"0_pointed_at_from_right\" [value=\"[object Object]\",label=\"call -x_in\"]\n  \"0_x\" -> \"0_pointed_at_from_right\" [value=\"[object Object]\",label=\"call -\"]\n  \"0_x\" -> \"0_arrow_path_pretty\" [value=\"[object Object]\",label=\"call -\"]\n  \"0_y\" -> \"0_arrow_path_pretty\" [value=\"[object Object]\",label=\"call -\"]\n  \"0_arrow_path\" -> \"0_arrow_path_pretty\" [value=\"[object Object]\",label=\"call -\"]\n  \"0_maze_in\" -> \"0_maze\" [value=\"[object Object]\",label=\"input +maze_in\"]\n  \"0_x_in\" -> \"0_x\" [value=\"[object Object]\",label=\"input +x_in\"]\n  \"0_y_in\" -> \"0_y\" [value=\"[object Object]\",label=\"input +y_in\"]\n}\n",
  "memo_map": {}
}