{
  "cul_functions": {
    "0_time$": {
      "cul_scope_id": 0,
      "name": "time$",
      "imported": "time_",
      "cul_source_scope_id": 1,
      "reason": "explicit import",
      "inputs": [
        "f_in"
      ]
    },
    "0_width$": {
      "cul_scope_id": 0,
      "name": "width$",
      "imported": "width_",
      "cul_source_scope_id": 1,
      "reason": "explicit import",
      "inputs": [
        "width_in"
      ]
    },
    "0_height$": {
      "cul_scope_id": 0,
      "name": "height$",
      "imported": "height_",
      "cul_source_scope_id": 1,
      "reason": "explicit import",
      "inputs": [
        "height_in"
      ]
    },
    "0_angle$": {
      "cul_scope_id": 0,
      "name": "angle$",
      "imported": "angle_",
      "cul_source_scope_id": 1,
      "reason": "explicit import",
      "inputs": [
        "w_in",
        "f_in",
        "p_in"
      ]
    },
    "0_x$": {
      "cul_scope_id": 0,
      "name": "x$",
      "imported": "x_",
      "cul_source_scope_id": 1,
      "reason": "explicit import",
      "inputs": [
        "width_in",
        "p_in",
        "w_in",
        "f_in"
      ]
    },
    "0_y$": {
      "cul_scope_id": 0,
      "name": "y$",
      "imported": "y_",
      "cul_source_scope_id": 1,
      "reason": "explicit import",
      "inputs": [
        "f_in",
        "height_in",
        "p_in"
      ]
    },
    "0_p$": {
      "cul_scope_id": 0,
      "name": "p$",
      "imported": "p_",
      "cul_source_scope_id": 1,
      "reason": "explicit import",
      "inputs": [
        "p_in"
      ]
    },
    "0_radius$": {
      "cul_scope_id": 0,
      "name": "radius$",
      "imported": "radius_",
      "cul_source_scope_id": 1,
      "reason": "explicit import",
      "inputs": [
        "p_in",
        "width_in"
      ]
    },
    "0_initial_angle$": {
      "cul_scope_id": 0,
      "name": "initial_angle$",
      "imported": "initial_angle_",
      "cul_source_scope_id": 1,
      "reason": "explicit import",
      "inputs": [
        "p_in"
      ]
    },
    "0_size$": {
      "cul_scope_id": 0,
      "name": "size$",
      "imported": "size_",
      "cul_source_scope_id": 1,
      "reason": "explicit import",
      "inputs": [
        "p_in"
      ]
    },
    "0_random$": {
      "cul_scope_id": 0,
      "name": "random$",
      "imported": "random_",
      "cul_source_scope_id": 1,
      "reason": "explicit import",
      "inputs": []
    },
    "0_time": {
      "cul_scope_id": 0,
      "name": "time",
      "cul_source_scope_id": 0,
      "reason": "definition",
      "loc": {
        "start": {
          "line": 17,
          "column": 20,
          "index": 855
        },
        "end": {
          "line": 21,
          "column": 1,
          "index": 991
        }
      },
      "inputs": [
        "f_in"
      ]
    },
    "0_width": {
      "cul_scope_id": 0,
      "name": "width",
      "cul_source_scope_id": 0,
      "reason": "definition",
      "loc": {
        "start": {
          "line": 29,
          "column": 21,
          "index": 1224
        },
        "end": {
          "line": 33,
          "column": 1,
          "index": 1362
        }
      },
      "inputs": [
        "width_in"
      ]
    },
    "0_height": {
      "cul_scope_id": 0,
      "name": "height",
      "cul_source_scope_id": 0,
      "reason": "definition",
      "loc": {
        "start": {
          "line": 41,
          "column": 22,
          "index": 1602
        },
        "end": {
          "line": 45,
          "column": 1,
          "index": 1742
        }
      },
      "inputs": [
        "height_in"
      ]
    },
    "0_angle": {
      "cul_scope_id": 0,
      "name": "angle",
      "cul_source_scope_id": 0,
      "reason": "definition",
      "loc": {
        "start": {
          "line": 53,
          "column": 21,
          "index": 1977
        },
        "end": {
          "line": 57,
          "column": 1,
          "index": 2115
        }
      },
      "inputs": [
        "w_in",
        "f_in",
        "p_in"
      ]
    },
    "0_x": {
      "cul_scope_id": 0,
      "name": "x",
      "cul_source_scope_id": 0,
      "reason": "definition",
      "loc": {
        "start": {
          "line": 65,
          "column": 17,
          "index": 2325
        },
        "end": {
          "line": 69,
          "column": 1,
          "index": 2455
        }
      },
      "inputs": [
        "width_in",
        "p_in",
        "w_in",
        "f_in"
      ]
    },
    "0_y": {
      "cul_scope_id": 0,
      "name": "y",
      "cul_source_scope_id": 0,
      "reason": "definition",
      "loc": {
        "start": {
          "line": 77,
          "column": 17,
          "index": 2661
        },
        "end": {
          "line": 81,
          "column": 1,
          "index": 2791
        }
      },
      "inputs": [
        "f_in",
        "height_in",
        "p_in"
      ]
    },
    "0_p": {
      "cul_scope_id": 0,
      "name": "p",
      "cul_source_scope_id": 0,
      "reason": "definition",
      "loc": {
        "start": {
          "line": 89,
          "column": 17,
          "index": 2997
        },
        "end": {
          "line": 93,
          "column": 1,
          "index": 3127
        }
      },
      "inputs": [
        "p_in"
      ]
    },
    "0_radius": {
      "cul_scope_id": 0,
      "name": "radius",
      "cul_source_scope_id": 0,
      "reason": "definition",
      "loc": {
        "start": {
          "line": 101,
          "column": 22,
          "index": 3363
        },
        "end": {
          "line": 105,
          "column": 1,
          "index": 3503
        }
      },
      "inputs": [
        "p_in",
        "width_in"
      ]
    },
    "0_initial_angle": {
      "cul_scope_id": 0,
      "name": "initial_angle",
      "cul_source_scope_id": 0,
      "reason": "definition",
      "loc": {
        "start": {
          "line": 113,
          "column": 29,
          "index": 3786
        },
        "end": {
          "line": 117,
          "column": 1,
          "index": 3940
        }
      },
      "inputs": [
        "p_in"
      ]
    },
    "0_size": {
      "cul_scope_id": 0,
      "name": "size",
      "cul_source_scope_id": 0,
      "reason": "definition",
      "loc": {
        "start": {
          "line": 125,
          "column": 20,
          "index": 4176
        },
        "end": {
          "line": 129,
          "column": 1,
          "index": 4312
        }
      },
      "inputs": [
        "p_in"
      ]
    },
    "0_random": {
      "cul_scope_id": 0,
      "name": "random",
      "cul_source_scope_id": 0,
      "reason": "definition",
      "loc": {
        "start": {
          "line": 137,
          "column": 22,
          "index": 4551
        },
        "end": {
          "line": 141,
          "column": 1,
          "index": 4691
        }
      },
      "inputs": []
    },
    "1_time": {
      "cul_scope_id": 1,
      "name": "time",
      "cul_source_scope_id": 0,
      "reason": "implicit import",
      "inputs": [
        "f_in"
      ]
    },
    "1_width": {
      "cul_scope_id": 1,
      "name": "width",
      "cul_source_scope_id": 0,
      "reason": "implicit import",
      "inputs": [
        "width_in"
      ]
    },
    "1_height": {
      "cul_scope_id": 1,
      "name": "height",
      "cul_source_scope_id": 0,
      "reason": "implicit import",
      "inputs": [
        "height_in"
      ]
    },
    "1_angle": {
      "cul_scope_id": 1,
      "name": "angle",
      "cul_source_scope_id": 0,
      "reason": "implicit import",
      "inputs": [
        "w_in",
        "f_in",
        "p_in"
      ]
    },
    "1_x": {
      "cul_scope_id": 1,
      "name": "x",
      "cul_source_scope_id": 0,
      "reason": "implicit import",
      "inputs": [
        "width_in",
        "p_in",
        "w_in",
        "f_in"
      ]
    },
    "1_y": {
      "cul_scope_id": 1,
      "name": "y",
      "cul_source_scope_id": 0,
      "reason": "implicit import",
      "inputs": [
        "f_in",
        "height_in",
        "p_in"
      ]
    },
    "1_p": {
      "cul_scope_id": 1,
      "name": "p",
      "cul_source_scope_id": 0,
      "reason": "implicit import",
      "inputs": [
        "p_in"
      ]
    },
    "1_radius": {
      "cul_scope_id": 1,
      "name": "radius",
      "cul_source_scope_id": 0,
      "reason": "implicit import",
      "inputs": [
        "p_in",
        "width_in"
      ]
    },
    "1_initial_angle": {
      "cul_scope_id": 1,
      "name": "initial_angle",
      "cul_source_scope_id": 0,
      "reason": "implicit import",
      "inputs": [
        "p_in"
      ]
    },
    "1_size": {
      "cul_scope_id": 1,
      "name": "size",
      "cul_source_scope_id": 0,
      "reason": "implicit import",
      "inputs": [
        "p_in"
      ]
    },
    "1_random": {
      "cul_scope_id": 1,
      "name": "random",
      "cul_source_scope_id": 0,
      "reason": "implicit import",
      "inputs": []
    },
    "1_time_": {
      "cul_scope_id": 1,
      "name": "time_",
      "imported": "time_",
      "cul_source_scope_id": 2,
      "reason": "explicit import (renamed)",
      "inputs": [
        "f_in"
      ]
    },
    "1_width_": {
      "cul_scope_id": 1,
      "name": "width_",
      "imported": "width_",
      "cul_source_scope_id": 2,
      "reason": "explicit import (renamed)",
      "inputs": [
        "width_in"
      ]
    },
    "1_height_": {
      "cul_scope_id": 1,
      "name": "height_",
      "imported": "height_",
      "cul_source_scope_id": 2,
      "reason": "explicit import (renamed)",
      "inputs": [
        "height_in"
      ]
    },
    "1_angle_": {
      "cul_scope_id": 1,
      "name": "angle_",
      "imported": "angle_",
      "cul_source_scope_id": 2,
      "reason": "explicit import (renamed)",
      "inputs": [
        "w_in",
        "f_in",
        "p_in"
      ]
    },
    "1_x_": {
      "cul_scope_id": 1,
      "name": "x_",
      "imported": "x_",
      "cul_source_scope_id": 2,
      "reason": "explicit import (renamed)",
      "inputs": [
        "width_in",
        "p_in",
        "w_in",
        "f_in"
      ]
    },
    "1_y_": {
      "cul_scope_id": 1,
      "name": "y_",
      "imported": "y_",
      "cul_source_scope_id": 2,
      "reason": "explicit import (renamed)",
      "inputs": [
        "f_in",
        "height_in",
        "p_in"
      ]
    },
    "1_p_": {
      "cul_scope_id": 1,
      "name": "p_",
      "imported": "p_",
      "cul_source_scope_id": 2,
      "reason": "explicit import (renamed)",
      "inputs": [
        "p_in"
      ]
    },
    "1_radius_": {
      "cul_scope_id": 1,
      "name": "radius_",
      "cul_source_scope_id": 1,
      "reason": "definition (renamed)",
      "loc": {
        "start": {
          "line": 8,
          "column": 22,
          "index": 344
        },
        "end": {
          "line": 9,
          "column": 61,
          "index": 411
        }
      },
      "inputs": [
        "p_in",
        "width_in"
      ]
    },
    "1_initial_angle_": {
      "cul_scope_id": 1,
      "name": "initial_angle_",
      "cul_source_scope_id": 1,
      "reason": "definition (renamed)",
      "loc": {
        "start": {
          "line": 11,
          "column": 29,
          "index": 443
        },
        "end": {
          "line": 11,
          "column": 76,
          "index": 490
        }
      },
      "inputs": [
        "p_in"
      ]
    },
    "1_size_": {
      "cul_scope_id": 1,
      "name": "size_",
      "cul_source_scope_id": 1,
      "reason": "definition (renamed)",
      "loc": {
        "start": {
          "line": 13,
          "column": 20,
          "index": 513
        },
        "end": {
          "line": 14,
          "column": 67,
          "index": 586
        }
      },
      "inputs": [
        "p_in"
      ]
    },
    "1_random_": {
      "cul_scope_id": 1,
      "name": "random_",
      "cul_source_scope_id": 1,
      "reason": "definition (renamed)",
      "loc": {
        "start": {
          "line": 17,
          "column": 22,
          "index": 707
        },
        "end": {
          "line": 17,
          "column": 41,
          "index": 726
        }
      },
      "inputs": []
    },
    "2_time": {
      "cul_scope_id": 2,
      "name": "time",
      "cul_source_scope_id": 0,
      "reason": "implicit import",
      "inputs": [
        "f_in"
      ]
    },
    "2_width": {
      "cul_scope_id": 2,
      "name": "width",
      "cul_source_scope_id": 0,
      "reason": "implicit import",
      "inputs": [
        "width_in"
      ]
    },
    "2_height": {
      "cul_scope_id": 2,
      "name": "height",
      "cul_source_scope_id": 0,
      "reason": "implicit import",
      "inputs": [
        "height_in"
      ]
    },
    "2_angle": {
      "cul_scope_id": 2,
      "name": "angle",
      "cul_source_scope_id": 0,
      "reason": "implicit import",
      "inputs": [
        "w_in",
        "f_in",
        "p_in"
      ]
    },
    "2_x": {
      "cul_scope_id": 2,
      "name": "x",
      "cul_source_scope_id": 0,
      "reason": "implicit import",
      "inputs": [
        "width_in",
        "p_in",
        "w_in",
        "f_in"
      ]
    },
    "2_y": {
      "cul_scope_id": 2,
      "name": "y",
      "cul_source_scope_id": 0,
      "reason": "implicit import",
      "inputs": [
        "f_in",
        "height_in",
        "p_in"
      ]
    },
    "2_p": {
      "cul_scope_id": 2,
      "name": "p",
      "cul_source_scope_id": 0,
      "reason": "implicit import",
      "inputs": [
        "p_in"
      ]
    },
    "2_radius": {
      "cul_scope_id": 2,
      "name": "radius",
      "cul_source_scope_id": 0,
      "reason": "implicit import",
      "inputs": [
        "p_in",
        "width_in"
      ]
    },
    "2_initial_angle": {
      "cul_scope_id": 2,
      "name": "initial_angle",
      "cul_source_scope_id": 0,
      "reason": "implicit import",
      "inputs": [
        "p_in"
      ]
    },
    "2_size": {
      "cul_scope_id": 2,
      "name": "size",
      "cul_source_scope_id": 0,
      "reason": "implicit import",
      "inputs": [
        "p_in"
      ]
    },
    "2_random": {
      "cul_scope_id": 2,
      "name": "random",
      "cul_source_scope_id": 0,
      "reason": "implicit import",
      "inputs": []
    },
    "2_angle$": {
      "cul_scope_id": 2,
      "name": "angle$",
      "imported": "angle_",
      "cul_source_scope_id": 3,
      "reason": "explicit import",
      "inputs": [
        "w_in",
        "f_in",
        "p_in"
      ]
    },
    "2_x$": {
      "cul_scope_id": 2,
      "name": "x$",
      "imported": "x_",
      "cul_source_scope_id": 3,
      "reason": "explicit import",
      "inputs": [
        "width_in",
        "p_in",
        "w_in",
        "f_in"
      ]
    },
    "2_y$": {
      "cul_scope_id": 2,
      "name": "y$",
      "imported": "y_",
      "cul_source_scope_id": 3,
      "reason": "explicit import",
      "inputs": [
        "f_in",
        "height_in",
        "p_in"
      ]
    },
    "2_time$": {
      "cul_scope_id": 2,
      "name": "time$",
      "imported": "time_",
      "cul_source_scope_id": 3,
      "reason": "explicit import",
      "inputs": [
        "f_in"
      ]
    },
    "2_p$": {
      "cul_scope_id": 2,
      "name": "p$",
      "imported": "p_",
      "cul_source_scope_id": 3,
      "reason": "explicit import",
      "inputs": [
        "p_in"
      ]
    },
    "2_f$": {
      "cul_scope_id": 2,
      "name": "f$",
      "imported": "f_",
      "cul_source_scope_id": 3,
      "reason": "explicit import",
      "inputs": [
        "f_in"
      ]
    },
    "2_w$": {
      "cul_scope_id": 2,
      "name": "w$",
      "imported": "w_",
      "cul_source_scope_id": 3,
      "reason": "explicit import",
      "inputs": [
        "w_in"
      ]
    },
    "2_radius$": {
      "cul_scope_id": 2,
      "name": "radius$",
      "imported": "radius_",
      "cul_source_scope_id": 3,
      "reason": "explicit import",
      "inputs": [
        "radius_in"
      ]
    },
    "2_initial_angle$": {
      "cul_scope_id": 2,
      "name": "initial_angle$",
      "imported": "initial_angle_",
      "cul_source_scope_id": 3,
      "reason": "explicit import",
      "inputs": [
        "initial_angle_in"
      ]
    },
    "2_size$": {
      "cul_scope_id": 2,
      "name": "size$",
      "imported": "size_",
      "cul_source_scope_id": 3,
      "reason": "explicit import",
      "inputs": [
        "size_in"
      ]
    },
    "2_width$": {
      "cul_scope_id": 2,
      "name": "width$",
      "imported": "width_",
      "cul_source_scope_id": 3,
      "reason": "explicit import",
      "inputs": [
        "width_in"
      ]
    },
    "2_height$": {
      "cul_scope_id": 2,
      "name": "height$",
      "imported": "height_",
      "cul_source_scope_id": 3,
      "reason": "explicit import",
      "inputs": [
        "height_in"
      ]
    },
    "2_angle_": {
      "cul_scope_id": 2,
      "name": "angle_",
      "cul_source_scope_id": 2,
      "reason": "definition (renamed)",
      "loc": {
        "start": {
          "line": 17,
          "column": 21,
          "index": 861
        },
        "end": {
          "line": 21,
          "column": 1,
          "index": 999
        }
      },
      "inputs": [
        "w_in",
        "f_in",
        "p_in"
      ]
    },
    "2_x_": {
      "cul_scope_id": 2,
      "name": "x_",
      "cul_source_scope_id": 2,
      "reason": "definition (renamed)",
      "loc": {
        "start": {
          "line": 29,
          "column": 17,
          "index": 1209
        },
        "end": {
          "line": 33,
          "column": 1,
          "index": 1339
        }
      },
      "inputs": [
        "width_in",
        "p_in",
        "w_in",
        "f_in"
      ]
    },
    "2_y_": {
      "cul_scope_id": 2,
      "name": "y_",
      "cul_source_scope_id": 2,
      "reason": "definition (renamed)",
      "loc": {
        "start": {
          "line": 41,
          "column": 17,
          "index": 1545
        },
        "end": {
          "line": 45,
          "column": 1,
          "index": 1675
        }
      },
      "inputs": [
        "f_in",
        "height_in",
        "p_in"
      ]
    },
    "2_time_": {
      "cul_scope_id": 2,
      "name": "time_",
      "cul_source_scope_id": 2,
      "reason": "definition (renamed)",
      "loc": {
        "start": {
          "line": 53,
          "column": 20,
          "index": 1899
        },
        "end": {
          "line": 57,
          "column": 1,
          "index": 2035
        }
      },
      "inputs": [
        "f_in"
      ]
    },
    "2_p_": {
      "cul_scope_id": 2,
      "name": "p_",
      "cul_source_scope_id": 2,
      "reason": "definition (renamed)",
      "loc": {
        "start": {
          "line": 65,
          "column": 17,
          "index": 2244
        },
        "end": {
          "line": 69,
          "column": 1,
          "index": 2374
        }
      },
      "inputs": [
        "p_in"
      ]
    },
    "2_f": {
      "cul_scope_id": 2,
      "name": "f",
      "cul_source_scope_id": 2,
      "reason": "definition",
      "loc": {
        "start": {
          "line": 77,
          "column": 17,
          "index": 2580
        },
        "end": {
          "line": 81,
          "column": 1,
          "index": 2710
        }
      },
      "inputs": [
        "f_in"
      ]
    },
    "2_w": {
      "cul_scope_id": 2,
      "name": "w",
      "cul_source_scope_id": 2,
      "reason": "definition",
      "loc": {
        "start": {
          "line": 89,
          "column": 17,
          "index": 2916
        },
        "end": {
          "line": 93,
          "column": 1,
          "index": 3046
        }
      },
      "inputs": [
        "w_in"
      ]
    },
    "2_radius_": {
      "cul_scope_id": 2,
      "name": "radius_",
      "cul_source_scope_id": 2,
      "reason": "definition (renamed)",
      "loc": {
        "start": {
          "line": 101,
          "column": 22,
          "index": 3282
        },
        "end": {
          "line": 105,
          "column": 1,
          "index": 3422
        }
      },
      "inputs": [
        "radius_in"
      ]
    },
    "2_initial_angle_": {
      "cul_scope_id": 2,
      "name": "initial_angle_",
      "cul_source_scope_id": 2,
      "reason": "definition (renamed)",
      "loc": {
        "start": {
          "line": 113,
          "column": 29,
          "index": 3705
        },
        "end": {
          "line": 117,
          "column": 1,
          "index": 3859
        }
      },
      "inputs": [
        "initial_angle_in"
      ]
    },
    "2_size_": {
      "cul_scope_id": 2,
      "name": "size_",
      "cul_source_scope_id": 2,
      "reason": "definition (renamed)",
      "loc": {
        "start": {
          "line": 125,
          "column": 20,
          "index": 4095
        },
        "end": {
          "line": 129,
          "column": 1,
          "index": 4231
        }
      },
      "inputs": [
        "size_in"
      ]
    },
    "2_width_": {
      "cul_scope_id": 2,
      "name": "width_",
      "cul_source_scope_id": 2,
      "reason": "definition (renamed)",
      "loc": {
        "start": {
          "line": 137,
          "column": 21,
          "index": 4464
        },
        "end": {
          "line": 141,
          "column": 1,
          "index": 4602
        }
      },
      "inputs": [
        "width_in"
      ]
    },
    "2_height_": {
      "cul_scope_id": 2,
      "name": "height_",
      "cul_source_scope_id": 2,
      "reason": "definition (renamed)",
      "loc": {
        "start": {
          "line": 149,
          "column": 22,
          "index": 4842
        },
        "end": {
          "line": 153,
          "column": 1,
          "index": 4982
        }
      },
      "inputs": [
        "height_in"
      ]
    },
    "3_time": {
      "cul_scope_id": 3,
      "name": "time",
      "cul_source_scope_id": 0,
      "reason": "implicit import",
      "inputs": [
        "f_in"
      ]
    },
    "3_width": {
      "cul_scope_id": 3,
      "name": "width",
      "cul_source_scope_id": 0,
      "reason": "implicit import",
      "inputs": [
        "width_in"
      ]
    },
    "3_height": {
      "cul_scope_id": 3,
      "name": "height",
      "cul_source_scope_id": 0,
      "reason": "implicit import",
      "inputs": [
        "height_in"
      ]
    },
    "3_angle": {
      "cul_scope_id": 3,
      "name": "angle",
      "cul_source_scope_id": 0,
      "reason": "implicit import",
      "inputs": [
        "w_in",
        "f_in",
        "p_in"
      ]
    },
    "3_x": {
      "cul_scope_id": 3,
      "name": "x",
      "cul_source_scope_id": 0,
      "reason": "implicit import",
      "inputs": [
        "width_in",
        "p_in",
        "w_in",
        "f_in"
      ]
    },
    "3_y": {
      "cul_scope_id": 3,
      "name": "y",
      "cul_source_scope_id": 0,
      "reason": "implicit import",
      "inputs": [
        "f_in",
        "height_in",
        "p_in"
      ]
    },
    "3_p": {
      "cul_scope_id": 3,
      "name": "p",
      "cul_source_scope_id": 0,
      "reason": "implicit import",
      "inputs": [
        "p_in"
      ]
    },
    "3_radius": {
      "cul_scope_id": 3,
      "name": "radius",
      "cul_source_scope_id": 0,
      "reason": "implicit import",
      "inputs": [
        "p_in",
        "width_in"
      ]
    },
    "3_initial_angle": {
      "cul_scope_id": 3,
      "name": "initial_angle",
      "cul_source_scope_id": 0,
      "reason": "implicit import",
      "inputs": [
        "p_in"
      ]
    },
    "3_size": {
      "cul_scope_id": 3,
      "name": "size",
      "cul_source_scope_id": 0,
      "reason": "implicit import",
      "inputs": [
        "p_in"
      ]
    },
    "3_random": {
      "cul_scope_id": 3,
      "name": "random",
      "cul_source_scope_id": 0,
      "reason": "implicit import",
      "inputs": []
    },
    "3_f": {
      "cul_scope_id": 3,
      "name": "f",
      "cul_source_scope_id": 2,
      "reason": "implicit import",
      "inputs": [
        "f_in"
      ]
    },
    "3_w": {
      "cul_scope_id": 3,
      "name": "w",
      "cul_source_scope_id": 2,
      "reason": "implicit import",
      "inputs": [
        "w_in"
      ]
    },
    "3_angle_": {
      "cul_scope_id": 3,
      "name": "angle_",
      "cul_source_scope_id": 3,
      "reason": "definition (renamed)",
      "loc": {
        "start": {
          "line": 3,
          "column": 21,
          "index": 76
        },
        "end": {
          "line": 3,
          "column": 57,
          "index": 112
        }
      },
      "inputs": [
        "w_in",
        "f_in",
        "p_in"
      ]
    },
    "3_x_": {
      "cul_scope_id": 3,
      "name": "x_",
      "cul_source_scope_id": 3,
      "reason": "definition (renamed)",
      "loc": {
        "start": {
          "line": 5,
          "column": 17,
          "index": 132
        },
        "end": {
          "line": 5,
          "column": 65,
          "index": 180
        }
      },
      "inputs": [
        "width_in",
        "p_in",
        "w_in",
        "f_in"
      ]
    },
    "3_y_": {
      "cul_scope_id": 3,
      "name": "y_",
      "cul_source_scope_id": 3,
      "reason": "definition (renamed)",
      "loc": {
        "start": {
          "line": 7,
          "column": 17,
          "index": 200
        },
        "end": {
          "line": 10,
          "column": 1,
          "index": 337
        }
      },
      "inputs": [
        "f_in",
        "height_in",
        "p_in"
      ]
    },
    "3_time_": {
      "cul_scope_id": 3,
      "name": "time_",
      "cul_source_scope_id": 3,
      "reason": "definition (renamed)",
      "loc": {
        "start": {
          "line": 12,
          "column": 20,
          "index": 360
        },
        "end": {
          "line": 12,
          "column": 34,
          "index": 374
        }
      },
      "inputs": [
        "f_in"
      ]
    },
    "3_p_": {
      "cul_scope_id": 3,
      "name": "p_",
      "cul_source_scope_id": 3,
      "reason": "definition (renamed)",
      "loc": {
        "start": {
          "line": 15,
          "column": 17,
          "index": 405
        },
        "end": {
          "line": 15,
          "column": 27,
          "index": 415
        }
      },
      "inputs": [
        "p_in"
      ]
    },
    "3_p_in": {
      "cul_scope_id": 3,
      "name": "p_in",
      "cul_source_scope_id": 3,
      "reason": "input definition",
      "inputs": [
        "p_in"
      ]
    },
    "3_f_": {
      "cul_scope_id": 3,
      "name": "f_",
      "cul_source_scope_id": 3,
      "reason": "definition (renamed)",
      "loc": {
        "start": {
          "line": 16,
          "column": 17,
          "index": 456
        },
        "end": {
          "line": 16,
          "column": 27,
          "index": 466
        }
      },
      "inputs": [
        "f_in"
      ]
    },
    "3_f_in": {
      "cul_scope_id": 3,
      "name": "f_in",
      "cul_source_scope_id": 3,
      "reason": "input definition",
      "inputs": [
        "f_in"
      ]
    },
    "3_w_": {
      "cul_scope_id": 3,
      "name": "w_",
      "cul_source_scope_id": 3,
      "reason": "definition (renamed)",
      "loc": {
        "start": {
          "line": 17,
          "column": 17,
          "index": 494
        },
        "end": {
          "line": 17,
          "column": 27,
          "index": 504
        }
      },
      "inputs": [
        "w_in"
      ]
    },
    "3_w_in": {
      "cul_scope_id": 3,
      "name": "w_in",
      "cul_source_scope_id": 3,
      "reason": "input definition",
      "inputs": [
        "w_in"
      ]
    },
    "3_radius_": {
      "cul_scope_id": 3,
      "name": "radius_",
      "cul_source_scope_id": 3,
      "reason": "definition (renamed)",
      "loc": {
        "start": {
          "line": 18,
          "column": 22,
          "index": 545
        },
        "end": {
          "line": 18,
          "column": 37,
          "index": 560
        }
      },
      "inputs": [
        "radius_in"
      ]
    },
    "3_radius_in": {
      "cul_scope_id": 3,
      "name": "radius_in",
      "cul_source_scope_id": 3,
      "reason": "input definition",
      "inputs": [
        "radius_in"
      ]
    },
    "3_initial_angle_": {
      "cul_scope_id": 3,
      "name": "initial_angle_",
      "cul_source_scope_id": 3,
      "reason": "definition (renamed)",
      "loc": {
        "start": {
          "line": 19,
          "column": 29,
          "index": 634
        },
        "end": {
          "line": 19,
          "column": 51,
          "index": 656
        }
      },
      "inputs": [
        "initial_angle_in"
      ]
    },
    "3_initial_angle_in": {
      "cul_scope_id": 3,
      "name": "initial_angle_in",
      "cul_source_scope_id": 3,
      "reason": "input definition",
      "inputs": [
        "initial_angle_in"
      ]
    },
    "3_size_": {
      "cul_scope_id": 3,
      "name": "size_",
      "cul_source_scope_id": 3,
      "reason": "definition (renamed)",
      "loc": {
        "start": {
          "line": 20,
          "column": 20,
          "index": 678
        },
        "end": {
          "line": 20,
          "column": 33,
          "index": 691
        }
      },
      "inputs": [
        "size_in"
      ]
    },
    "3_size_in": {
      "cul_scope_id": 3,
      "name": "size_in",
      "cul_source_scope_id": 3,
      "reason": "input definition",
      "inputs": [
        "size_in"
      ]
    },
    "3_width_": {
      "cul_scope_id": 3,
      "name": "width_",
      "cul_source_scope_id": 3,
      "reason": "definition (renamed)",
      "loc": {
        "start": {
          "line": 21,
          "column": 21,
          "index": 714
        },
        "end": {
          "line": 21,
          "column": 35,
          "index": 728
        }
      },
      "inputs": [
        "width_in"
      ]
    },
    "3_width_in": {
      "cul_scope_id": 3,
      "name": "width_in",
      "cul_source_scope_id": 3,
      "reason": "input definition",
      "inputs": [
        "width_in"
      ]
    },
    "3_height_": {
      "cul_scope_id": 3,
      "name": "height_",
      "cul_source_scope_id": 3,
      "reason": "definition (renamed)",
      "loc": {
        "start": {
          "line": 22,
          "column": 22,
          "index": 752
        },
        "end": {
          "line": 22,
          "column": 37,
          "index": 767
        }
      },
      "inputs": [
        "height_in"
      ]
    },
    "3_height_in": {
      "cul_scope_id": 3,
      "name": "height_in",
      "cul_source_scope_id": 3,
      "reason": "input definition",
      "inputs": [
        "height_in"
      ]
    }
  },
  "cul_links": [
    {
      "to": "0_time$",
      "from": "1_time_",
      "reason": "explicit import"
    },
    {
      "to": "0_width$",
      "from": "1_width_",
      "reason": "explicit import"
    },
    {
      "to": "0_height$",
      "from": "1_height_",
      "reason": "explicit import"
    },
    {
      "to": "0_angle$",
      "from": "1_angle_",
      "reason": "explicit import"
    },
    {
      "to": "0_x$",
      "from": "1_x_",
      "reason": "explicit import"
    },
    {
      "to": "0_y$",
      "from": "1_y_",
      "reason": "explicit import"
    },
    {
      "to": "0_p$",
      "from": "1_p_",
      "reason": "explicit import"
    },
    {
      "to": "0_radius$",
      "from": "1_radius_",
      "reason": "explicit import"
    },
    {
      "to": "0_initial_angle$",
      "from": "1_initial_angle_",
      "reason": "explicit import"
    },
    {
      "to": "0_size$",
      "from": "1_size_",
      "reason": "explicit import"
    },
    {
      "to": "0_random$",
      "from": "1_random_",
      "reason": "explicit import"
    },
    {
      "to": "0_time",
      "from": "0_time$",
      "reason": "call",
      "negs": [],
      "loc": {
        "start": {
          "line": 20,
          "column": 2,
          "index": 925
        },
        "end": {
          "line": 20,
          "column": 9,
          "index": 932
        }
      }
    },
    {
      "to": "0_width",
      "from": "0_width$",
      "reason": "call",
      "negs": [],
      "loc": {
        "start": {
          "line": 32,
          "column": 2,
          "index": 1295
        },
        "end": {
          "line": 32,
          "column": 10,
          "index": 1303
        }
      }
    },
    {
      "to": "0_height",
      "from": "0_height$",
      "reason": "call",
      "negs": [],
      "loc": {
        "start": {
          "line": 44,
          "column": 2,
          "index": 1674
        },
        "end": {
          "line": 44,
          "column": 11,
          "index": 1683
        }
      }
    },
    {
      "to": "0_angle",
      "from": "0_angle$",
      "reason": "call",
      "negs": [],
      "loc": {
        "start": {
          "line": 56,
          "column": 2,
          "index": 2048
        },
        "end": {
          "line": 56,
          "column": 10,
          "index": 2056
        }
      }
    },
    {
      "to": "0_x",
      "from": "0_x$",
      "reason": "call",
      "negs": [],
      "loc": {
        "start": {
          "line": 68,
          "column": 2,
          "index": 2392
        },
        "end": {
          "line": 68,
          "column": 6,
          "index": 2396
        }
      }
    },
    {
      "to": "0_y",
      "from": "0_y$",
      "reason": "call",
      "negs": [],
      "loc": {
        "start": {
          "line": 80,
          "column": 2,
          "index": 2728
        },
        "end": {
          "line": 80,
          "column": 6,
          "index": 2732
        }
      }
    },
    {
      "to": "0_p",
      "from": "0_p$",
      "reason": "call",
      "negs": [],
      "loc": {
        "start": {
          "line": 92,
          "column": 2,
          "index": 3064
        },
        "end": {
          "line": 92,
          "column": 6,
          "index": 3068
        }
      }
    },
    {
      "to": "0_radius",
      "from": "0_radius$",
      "reason": "call",
      "negs": [],
      "loc": {
        "start": {
          "line": 104,
          "column": 2,
          "index": 3435
        },
        "end": {
          "line": 104,
          "column": 11,
          "index": 3444
        }
      }
    },
    {
      "to": "0_initial_angle",
      "from": "0_initial_angle$",
      "reason": "call",
      "negs": [],
      "loc": {
        "start": {
          "line": 116,
          "column": 2,
          "index": 3865
        },
        "end": {
          "line": 116,
          "column": 18,
          "index": 3881
        }
      }
    },
    {
      "to": "0_size",
      "from": "0_size$",
      "reason": "call",
      "negs": [],
      "loc": {
        "start": {
          "line": 128,
          "column": 2,
          "index": 4246
        },
        "end": {
          "line": 128,
          "column": 9,
          "index": 4253
        }
      }
    },
    {
      "to": "0_random",
      "from": "0_random$",
      "reason": "call",
      "negs": [],
      "loc": {
        "start": {
          "line": 140,
          "column": 2,
          "index": 4623
        },
        "end": {
          "line": 140,
          "column": 11,
          "index": 4632
        }
      }
    },
    {
      "to": "1_time",
      "from": "0_time",
      "reason": "implicit import"
    },
    {
      "to": "1_width",
      "from": "0_width",
      "reason": "implicit import"
    },
    {
      "to": "1_height",
      "from": "0_height",
      "reason": "implicit import"
    },
    {
      "to": "1_angle",
      "from": "0_angle",
      "reason": "implicit import"
    },
    {
      "to": "1_x",
      "from": "0_x",
      "reason": "implicit import"
    },
    {
      "to": "1_y",
      "from": "0_y",
      "reason": "implicit import"
    },
    {
      "to": "1_p",
      "from": "0_p",
      "reason": "implicit import"
    },
    {
      "to": "1_radius",
      "from": "0_radius",
      "reason": "implicit import"
    },
    {
      "to": "1_initial_angle",
      "from": "0_initial_angle",
      "reason": "implicit import"
    },
    {
      "to": "1_size",
      "from": "0_size",
      "reason": "implicit import"
    },
    {
      "to": "1_random",
      "from": "0_random",
      "reason": "implicit import"
    },
    {
      "to": "1_time_",
      "from": "2_time_",
      "reason": "explicit import (renamed)"
    },
    {
      "to": "1_width_",
      "from": "2_width_",
      "reason": "explicit import (renamed)"
    },
    {
      "to": "1_height_",
      "from": "2_height_",
      "reason": "explicit import (renamed)"
    },
    {
      "to": "1_angle_",
      "from": "2_angle_",
      "reason": "explicit import (renamed)"
    },
    {
      "to": "1_x_",
      "from": "2_x_",
      "reason": "explicit import (renamed)"
    },
    {
      "to": "1_y_",
      "from": "2_y_",
      "reason": "explicit import (renamed)"
    },
    {
      "to": "1_p_",
      "from": "2_p_",
      "reason": "explicit import (renamed)"
    },
    {
      "to": "1_radius_",
      "from": "1_random",
      "reason": "call",
      "negs": [
        "p_in"
      ],
      "loc": {
        "start": {
          "line": 9,
          "column": 12,
          "index": 362
        },
        "end": {
          "line": 9,
          "column": 33,
          "index": 383
        }
      }
    },
    {
      "to": "1_radius_",
      "from": "1_p",
      "reason": "call",
      "negs": [],
      "loc": {
        "start": {
          "line": 9,
          "column": 27,
          "index": 377
        },
        "end": {
          "line": 9,
          "column": 30,
          "index": 380
        }
      }
    },
    {
      "to": "1_radius_",
      "from": "1_width",
      "reason": "call",
      "negs": [],
      "loc": {
        "start": {
          "line": 9,
          "column": 45,
          "index": 395
        },
        "end": {
          "line": 9,
          "column": 52,
          "index": 402
        }
      }
    },
    {
      "to": "1_initial_angle_",
      "from": "1_random",
      "reason": "call",
      "negs": [
        "p_in",
        "v"
      ],
      "loc": {
        "start": {
          "line": 11,
          "column": 35,
          "index": 449
        },
        "end": {
          "line": 11,
          "column": 62,
          "index": 476
        }
      }
    },
    {
      "to": "1_initial_angle_",
      "from": "1_p",
      "reason": "call",
      "negs": [],
      "loc": {
        "start": {
          "line": 11,
          "column": 50,
          "index": 464
        },
        "end": {
          "line": 11,
          "column": 53,
          "index": 467
        }
      }
    },
    {
      "to": "1_size_",
      "from": "1_random",
      "reason": "call",
      "negs": [
        "p_in",
        "v"
      ],
      "loc": {
        "start": {
          "line": 14,
          "column": 2,
          "index": 521
        },
        "end": {
          "line": 14,
          "column": 29,
          "index": 548
        }
      }
    },
    {
      "to": "1_size_",
      "from": "1_p",
      "reason": "call",
      "negs": [],
      "loc": {
        "start": {
          "line": 14,
          "column": 17,
          "index": 536
        },
        "end": {
          "line": 14,
          "column": 20,
          "index": 539
        }
      }
    },
    {
      "to": "1_size_",
      "from": "1_random",
      "reason": "call",
      "negs": [
        "p_in",
        "v"
      ],
      "loc": {
        "start": {
          "line": 14,
          "column": 36,
          "index": 555
        },
        "end": {
          "line": 14,
          "column": 63,
          "index": 582
        }
      }
    },
    {
      "to": "1_size_",
      "from": "1_p",
      "reason": "call",
      "negs": [],
      "loc": {
        "start": {
          "line": 14,
          "column": 51,
          "index": 570
        },
        "end": {
          "line": 14,
          "column": 54,
          "index": 573
        }
      }
    },
    {
      "to": "1_random_",
      "from": "1_undefined",
      "reason": "call",
      "negs": [],
      "loc": {
        "start": {
          "line": 17,
          "column": 28,
          "index": 713
        },
        "end": {
          "line": 17,
          "column": 41,
          "index": 726
        }
      }
    },
    {
      "to": "2_time",
      "from": "0_time",
      "reason": "implicit import"
    },
    {
      "to": "2_width",
      "from": "0_width",
      "reason": "implicit import"
    },
    {
      "to": "2_height",
      "from": "0_height",
      "reason": "implicit import"
    },
    {
      "to": "2_angle",
      "from": "0_angle",
      "reason": "implicit import"
    },
    {
      "to": "2_x",
      "from": "0_x",
      "reason": "implicit import"
    },
    {
      "to": "2_y",
      "from": "0_y",
      "reason": "implicit import"
    },
    {
      "to": "2_p",
      "from": "0_p",
      "reason": "implicit import"
    },
    {
      "to": "2_radius",
      "from": "0_radius",
      "reason": "implicit import"
    },
    {
      "to": "2_initial_angle",
      "from": "0_initial_angle",
      "reason": "implicit import"
    },
    {
      "to": "2_size",
      "from": "0_size",
      "reason": "implicit import"
    },
    {
      "to": "2_random",
      "from": "0_random",
      "reason": "implicit import"
    },
    {
      "to": "2_angle$",
      "from": "3_angle_",
      "reason": "explicit import"
    },
    {
      "to": "2_x$",
      "from": "3_x_",
      "reason": "explicit import"
    },
    {
      "to": "2_y$",
      "from": "3_y_",
      "reason": "explicit import"
    },
    {
      "to": "2_time$",
      "from": "3_time_",
      "reason": "explicit import"
    },
    {
      "to": "2_p$",
      "from": "3_p_",
      "reason": "explicit import"
    },
    {
      "to": "2_f$",
      "from": "3_f_",
      "reason": "explicit import"
    },
    {
      "to": "2_w$",
      "from": "3_w_",
      "reason": "explicit import"
    },
    {
      "to": "2_radius$",
      "from": "3_radius_",
      "reason": "explicit import"
    },
    {
      "to": "2_initial_angle$",
      "from": "3_initial_angle_",
      "reason": "explicit import"
    },
    {
      "to": "2_size$",
      "from": "3_size_",
      "reason": "explicit import"
    },
    {
      "to": "2_width$",
      "from": "3_width_",
      "reason": "explicit import"
    },
    {
      "to": "2_height$",
      "from": "3_height_",
      "reason": "explicit import"
    },
    {
      "to": "2_angle_",
      "from": "2_angle$",
      "reason": "call",
      "negs": [],
      "loc": {
        "start": {
          "line": 20,
          "column": 2,
          "index": 932
        },
        "end": {
          "line": 20,
          "column": 10,
          "index": 940
        }
      }
    },
    {
      "to": "2_x_",
      "from": "2_x$",
      "reason": "call",
      "negs": [],
      "loc": {
        "start": {
          "line": 32,
          "column": 2,
          "index": 1276
        },
        "end": {
          "line": 32,
          "column": 6,
          "index": 1280
        }
      }
    },
    {
      "to": "2_y_",
      "from": "2_y$",
      "reason": "call",
      "negs": [],
      "loc": {
        "start": {
          "line": 44,
          "column": 2,
          "index": 1612
        },
        "end": {
          "line": 44,
          "column": 6,
          "index": 1616
        }
      }
    },
    {
      "to": "2_time_",
      "from": "2_time$",
      "reason": "call",
      "negs": [],
      "loc": {
        "start": {
          "line": 56,
          "column": 2,
          "index": 1969
        },
        "end": {
          "line": 56,
          "column": 9,
          "index": 1976
        }
      }
    },
    {
      "to": "2_p_",
      "from": "2_p$",
      "reason": "call",
      "negs": [],
      "loc": {
        "start": {
          "line": 68,
          "column": 2,
          "index": 2311
        },
        "end": {
          "line": 68,
          "column": 6,
          "index": 2315
        }
      }
    },
    {
      "to": "2_f",
      "from": "2_f$",
      "reason": "call",
      "negs": [],
      "loc": {
        "start": {
          "line": 80,
          "column": 2,
          "index": 2647
        },
        "end": {
          "line": 80,
          "column": 6,
          "index": 2651
        }
      }
    },
    {
      "to": "2_w",
      "from": "2_w$",
      "reason": "call",
      "negs": [],
      "loc": {
        "start": {
          "line": 92,
          "column": 2,
          "index": 2983
        },
        "end": {
          "line": 92,
          "column": 6,
          "index": 2987
        }
      }
    },
    {
      "to": "2_radius_",
      "from": "2_radius$",
      "reason": "call",
      "negs": [],
      "loc": {
        "start": {
          "line": 104,
          "column": 2,
          "index": 3354
        },
        "end": {
          "line": 104,
          "column": 11,
          "index": 3363
        }
      }
    },
    {
      "to": "2_initial_angle_",
      "from": "2_initial_angle$",
      "reason": "call",
      "negs": [],
      "loc": {
        "start": {
          "line": 116,
          "column": 2,
          "index": 3784
        },
        "end": {
          "line": 116,
          "column": 18,
          "index": 3800
        }
      }
    },
    {
      "to": "2_size_",
      "from": "2_size$",
      "reason": "call",
      "negs": [],
      "loc": {
        "start": {
          "line": 128,
          "column": 2,
          "index": 4165
        },
        "end": {
          "line": 128,
          "column": 9,
          "index": 4172
        }
      }
    },
    {
      "to": "2_width_",
      "from": "2_width$",
      "reason": "call",
      "negs": [],
      "loc": {
        "start": {
          "line": 140,
          "column": 2,
          "index": 4535
        },
        "end": {
          "line": 140,
          "column": 10,
          "index": 4543
        }
      }
    },
    {
      "to": "2_height_",
      "from": "2_height$",
      "reason": "call",
      "negs": [],
      "loc": {
        "start": {
          "line": 152,
          "column": 2,
          "index": 4914
        },
        "end": {
          "line": 152,
          "column": 11,
          "index": 4923
        }
      }
    },
    {
      "to": "3_time",
      "from": "0_time",
      "reason": "implicit import"
    },
    {
      "to": "3_width",
      "from": "0_width",
      "reason": "implicit import"
    },
    {
      "to": "3_height",
      "from": "0_height",
      "reason": "implicit import"
    },
    {
      "to": "3_angle",
      "from": "0_angle",
      "reason": "implicit import"
    },
    {
      "to": "3_x",
      "from": "0_x",
      "reason": "implicit import"
    },
    {
      "to": "3_y",
      "from": "0_y",
      "reason": "implicit import"
    },
    {
      "to": "3_p",
      "from": "0_p",
      "reason": "implicit import"
    },
    {
      "to": "3_radius",
      "from": "0_radius",
      "reason": "implicit import"
    },
    {
      "to": "3_initial_angle",
      "from": "0_initial_angle",
      "reason": "implicit import"
    },
    {
      "to": "3_size",
      "from": "0_size",
      "reason": "implicit import"
    },
    {
      "to": "3_random",
      "from": "0_random",
      "reason": "implicit import"
    },
    {
      "to": "3_f",
      "from": "2_f",
      "reason": "implicit import"
    },
    {
      "to": "3_w",
      "from": "2_w",
      "reason": "implicit import"
    },
    {
      "to": "3_angle_",
      "from": "3_w",
      "reason": "call",
      "negs": [],
      "loc": {
        "start": {
          "line": 3,
          "column": 27,
          "index": 82
        },
        "end": {
          "line": 3,
          "column": 30,
          "index": 85
        }
      }
    },
    {
      "to": "3_angle_",
      "from": "3_time",
      "reason": "call",
      "negs": [],
      "loc": {
        "start": {
          "line": 3,
          "column": 33,
          "index": 88
        },
        "end": {
          "line": 3,
          "column": 39,
          "index": 94
        }
      }
    },
    {
      "to": "3_angle_",
      "from": "3_initial_angle",
      "reason": "call",
      "negs": [],
      "loc": {
        "start": {
          "line": 3,
          "column": 42,
          "index": 97
        },
        "end": {
          "line": 3,
          "column": 57,
          "index": 112
        }
      }
    },
    {
      "to": "3_x_",
      "from": "3_width",
      "reason": "call",
      "negs": [],
      "loc": {
        "start": {
          "line": 5,
          "column": 23,
          "index": 138
        },
        "end": {
          "line": 5,
          "column": 30,
          "index": 145
        }
      }
    },
    {
      "to": "3_x_",
      "from": "3_radius",
      "reason": "call",
      "negs": [],
      "loc": {
        "start": {
          "line": 5,
          "column": 37,
          "index": 152
        },
        "end": {
          "line": 5,
          "column": 45,
          "index": 160
        }
      }
    },
    {
      "to": "3_x_",
      "from": "3_angle",
      "reason": "call",
      "negs": [],
      "loc": {
        "start": {
          "line": 5,
          "column": 57,
          "index": 172
        },
        "end": {
          "line": 5,
          "column": 64,
          "index": 179
        }
      }
    },
    {
      "to": "3_y_",
      "from": "3_f",
      "reason": "call",
      "negs": [],
      "loc": {
        "start": {
          "line": 8,
          "column": 6,
          "index": 214
        },
        "end": {
          "line": 8,
          "column": 9,
          "index": 217
        }
      }
    },
    {
      "to": "3_y_",
      "from": "3_y",
      "reason": "call",
      "negs": [
        "f_in"
      ],
      "loc": {
        "start": {
          "line": 8,
          "column": 18,
          "index": 226
        },
        "end": {
          "line": 8,
          "column": 38,
          "index": 246
        }
      }
    },
    {
      "to": "3_y_",
      "from": "3_f",
      "reason": "call",
      "negs": [],
      "loc": {
        "start": {
          "line": 8,
          "column": 28,
          "index": 236
        },
        "end": {
          "line": 8,
          "column": 31,
          "index": 239
        }
      }
    },
    {
      "to": "3_y_",
      "from": "3_height",
      "reason": "call",
      "negs": [],
      "loc": {
        "start": {
          "line": 8,
          "column": 41,
          "index": 249
        },
        "end": {
          "line": 8,
          "column": 49,
          "index": 257
        }
      }
    },
    {
      "to": "3_y_",
      "from": "3_y",
      "reason": "call",
      "negs": [
        "f_in"
      ],
      "loc": {
        "start": {
          "line": 9,
          "column": 14,
          "index": 290
        },
        "end": {
          "line": 9,
          "column": 34,
          "index": 310
        }
      }
    },
    {
      "to": "3_y_",
      "from": "3_f",
      "reason": "call",
      "negs": [],
      "loc": {
        "start": {
          "line": 9,
          "column": 24,
          "index": 300
        },
        "end": {
          "line": 9,
          "column": 27,
          "index": 303
        }
      }
    },
    {
      "to": "3_y_",
      "from": "3_size",
      "reason": "call",
      "negs": [],
      "loc": {
        "start": {
          "line": 9,
          "column": 46,
          "index": 322
        },
        "end": {
          "line": 9,
          "column": 52,
          "index": 328
        }
      }
    },
    {
      "to": "3_time_",
      "from": "3_f",
      "reason": "call",
      "negs": [],
      "loc": {
        "start": {
          "line": 12,
          "column": 26,
          "index": 366
        },
        "end": {
          "line": 12,
          "column": 29,
          "index": 369
        }
      }
    },
    {
      "to": "3_p_",
      "from": "3_p_in",
      "reason": "input"
    },
    {
      "to": "3_f_",
      "from": "3_f_in",
      "reason": "input"
    },
    {
      "to": "3_w_",
      "from": "3_w_in",
      "reason": "input"
    },
    {
      "to": "3_radius_",
      "from": "3_radius_in",
      "reason": "input"
    },
    {
      "to": "3_initial_angle_",
      "from": "3_initial_angle_in",
      "reason": "input"
    },
    {
      "to": "3_size_",
      "from": "3_size_in",
      "reason": "input"
    },
    {
      "to": "3_width_",
      "from": "3_width_in",
      "reason": "input"
    },
    {
      "to": "3_height_",
      "from": "3_height_in",
      "reason": "input"
    }
  ],
  "cul_scope_ids_to_resource": {
    "0": "./snowflakes.cul.js",
    "1": "./snowflakes.cul.js?+memoed&cul_scope_id=1&cul_parent_scope_id=0",
    "2": "./snowflake.cul.js?cul_scope_id=2&cul_parent_scope_id=1",
    "3": "./snowflake.cul.js?&+memoed&cul_scope_id=3&cul_parent_scope_id=2"
  },
  "import_sources_to_resource": {
    "0_./snowflakes.cul.js?+memoed": "./snowflakes.cul.js?+memoed&cul_scope_id=1&cul_parent_scope_id=0",
    "1_./snowflake.cul.js": "./snowflake.cul.js?cul_scope_id=2&cul_parent_scope_id=1",
    "2_./snowflake.cul.js?&+memoed": "./snowflake.cul.js?&+memoed&cul_scope_id=3&cul_parent_scope_id=2"
  },
  "cul_input_map": {
    "0_time$": [
      "f_in"
    ],
    "0_width$": [
      "width_in"
    ],
    "0_height$": [
      "height_in"
    ],
    "0_angle$": [
      "w_in",
      "f_in",
      "p_in"
    ],
    "0_x$": [
      "width_in",
      "p_in",
      "w_in",
      "f_in"
    ],
    "0_y$": [
      "f_in",
      "height_in",
      "p_in"
    ],
    "0_p$": [
      "p_in"
    ],
    "0_radius$": [
      "p_in",
      "width_in"
    ],
    "0_initial_angle$": [
      "p_in"
    ],
    "0_size$": [
      "p_in"
    ],
    "0_random$": [],
    "0_time": [
      "f_in"
    ],
    "0_width": [
      "width_in"
    ],
    "0_height": [
      "height_in"
    ],
    "0_angle": [
      "w_in",
      "f_in",
      "p_in"
    ],
    "0_x": [
      "width_in",
      "p_in",
      "w_in",
      "f_in"
    ],
    "0_y": [
      "f_in",
      "height_in",
      "p_in"
    ],
    "0_p": [
      "p_in"
    ],
    "0_radius": [
      "p_in",
      "width_in"
    ],
    "0_initial_angle": [
      "p_in"
    ],
    "0_size": [
      "p_in"
    ],
    "0_random": [],
    "1_time": [
      "f_in"
    ],
    "1_width": [
      "width_in"
    ],
    "1_height": [
      "height_in"
    ],
    "1_angle": [
      "w_in",
      "f_in",
      "p_in"
    ],
    "1_x": [
      "width_in",
      "p_in",
      "w_in",
      "f_in"
    ],
    "1_y": [
      "f_in",
      "height_in",
      "p_in"
    ],
    "1_p": [
      "p_in"
    ],
    "1_radius": [
      "p_in",
      "width_in"
    ],
    "1_initial_angle": [
      "p_in"
    ],
    "1_size": [
      "p_in"
    ],
    "1_random": [],
    "1_time_": [
      "f_in"
    ],
    "1_width_": [
      "width_in"
    ],
    "1_height_": [
      "height_in"
    ],
    "1_angle_": [
      "w_in",
      "f_in",
      "p_in"
    ],
    "1_x_": [
      "width_in",
      "p_in",
      "w_in",
      "f_in"
    ],
    "1_y_": [
      "f_in",
      "height_in",
      "p_in"
    ],
    "1_p_": [
      "p_in"
    ],
    "1_radius_": [
      "p_in",
      "width_in"
    ],
    "1_initial_angle_": [
      "p_in"
    ],
    "1_size_": [
      "p_in"
    ],
    "1_random_": [],
    "2_time": [
      "f_in"
    ],
    "2_width": [
      "width_in"
    ],
    "2_height": [
      "height_in"
    ],
    "2_angle": [
      "w_in",
      "f_in",
      "p_in"
    ],
    "2_x": [
      "width_in",
      "p_in",
      "w_in",
      "f_in"
    ],
    "2_y": [
      "f_in",
      "height_in",
      "p_in"
    ],
    "2_p": [
      "p_in"
    ],
    "2_radius": [
      "p_in",
      "width_in"
    ],
    "2_initial_angle": [
      "p_in"
    ],
    "2_size": [
      "p_in"
    ],
    "2_random": [],
    "2_angle$": [
      "w_in",
      "f_in",
      "p_in"
    ],
    "2_x$": [
      "width_in",
      "p_in",
      "w_in",
      "f_in"
    ],
    "2_y$": [
      "f_in",
      "height_in",
      "p_in"
    ],
    "2_time$": [
      "f_in"
    ],
    "2_p$": [
      "p_in"
    ],
    "2_f$": [
      "f_in"
    ],
    "2_w$": [
      "w_in"
    ],
    "2_radius$": [
      "radius_in"
    ],
    "2_initial_angle$": [
      "initial_angle_in"
    ],
    "2_size$": [
      "size_in"
    ],
    "2_width$": [
      "width_in"
    ],
    "2_height$": [
      "height_in"
    ],
    "2_angle_": [
      "w_in",
      "f_in",
      "p_in"
    ],
    "2_x_": [
      "width_in",
      "p_in",
      "w_in",
      "f_in"
    ],
    "2_y_": [
      "f_in",
      "height_in",
      "p_in"
    ],
    "2_time_": [
      "f_in"
    ],
    "2_p_": [
      "p_in"
    ],
    "2_f": [
      "f_in"
    ],
    "2_w": [
      "w_in"
    ],
    "2_radius_": [
      "radius_in"
    ],
    "2_initial_angle_": [
      "initial_angle_in"
    ],
    "2_size_": [
      "size_in"
    ],
    "2_width_": [
      "width_in"
    ],
    "2_height_": [
      "height_in"
    ],
    "3_time": [
      "f_in"
    ],
    "3_width": [
      "width_in"
    ],
    "3_height": [
      "height_in"
    ],
    "3_angle": [
      "w_in",
      "f_in",
      "p_in"
    ],
    "3_x": [
      "width_in",
      "p_in",
      "w_in",
      "f_in"
    ],
    "3_y": [
      "f_in",
      "height_in",
      "p_in"
    ],
    "3_p": [
      "p_in"
    ],
    "3_radius": [
      "p_in",
      "width_in"
    ],
    "3_initial_angle": [
      "p_in"
    ],
    "3_size": [
      "p_in"
    ],
    "3_random": [],
    "3_f": [
      "f_in"
    ],
    "3_w": [
      "w_in"
    ],
    "3_angle_": [
      "w_in",
      "f_in",
      "p_in"
    ],
    "3_x_": [
      "width_in",
      "p_in",
      "w_in",
      "f_in"
    ],
    "3_y_": [
      "f_in",
      "height_in",
      "p_in"
    ],
    "3_time_": [
      "f_in"
    ],
    "3_p_": [
      "p_in"
    ],
    "3_p_in": [
      "p_in"
    ],
    "3_f_": [
      "f_in"
    ],
    "3_f_in": [
      "f_in"
    ],
    "3_w_": [
      "w_in"
    ],
    "3_w_in": [
      "w_in"
    ],
    "3_radius_": [
      "radius_in"
    ],
    "3_radius_in": [
      "radius_in"
    ],
    "3_initial_angle_": [
      "initial_angle_in"
    ],
    "3_initial_angle_in": [
      "initial_angle_in"
    ],
    "3_size_": [
      "size_in"
    ],
    "3_size_in": [
      "size_in"
    ],
    "3_width_": [
      "width_in"
    ],
    "3_width_in": [
      "width_in"
    ],
    "3_height_": [
      "height_in"
    ],
    "3_height_in": [
      "height_in"
    ]
  },
  "dot": "digraph {\n  \"0_time$\" [cul_scope_id=0,name=\"time$\",imported=time_,cul_source_scope_id=1,reason=\"explicit import\",inputs=f_in,label=\"0_time$ inputs: f_in\"]\n  \"0_width$\" [cul_scope_id=0,name=\"width$\",imported=width_,cul_source_scope_id=1,reason=\"explicit import\",inputs=width_in,label=\"0_width$ inputs: width_in\"]\n  \"0_height$\" [cul_scope_id=0,name=\"height$\",imported=height_,cul_source_scope_id=1,reason=\"explicit import\",inputs=height_in,label=\"0_height$ inputs: height_in\"]\n  \"0_angle$\" [cul_scope_id=0,name=\"angle$\",imported=angle_,cul_source_scope_id=1,reason=\"explicit import\",inputs=\"w_in,f_in,p_in\",label=\"0_angle$ inputs: w_in,f_in,p_in\"]\n  \"0_x$\" [cul_scope_id=0,name=\"x$\",imported=x_,cul_source_scope_id=1,reason=\"explicit import\",inputs=\"width_in,p_in,w_in,f_in\",label=\"0_x$ inputs: width_in,p_in,w_in,f_in\"]\n  \"0_y$\" [cul_scope_id=0,name=\"y$\",imported=y_,cul_source_scope_id=1,reason=\"explicit import\",inputs=\"f_in,height_in,p_in\",label=\"0_y$ inputs: f_in,height_in,p_in\"]\n  \"0_p$\" [cul_scope_id=0,name=\"p$\",imported=p_,cul_source_scope_id=1,reason=\"explicit import\",inputs=p_in,label=\"0_p$ inputs: p_in\"]\n  \"0_radius$\" [cul_scope_id=0,name=\"radius$\",imported=radius_,cul_source_scope_id=1,reason=\"explicit import\",inputs=\"p_in,width_in\",label=\"0_radius$ inputs: p_in,width_in\"]\n  \"0_initial_angle$\" [cul_scope_id=0,name=\"initial_angle$\",imported=initial_angle_,cul_source_scope_id=1,reason=\"explicit import\",inputs=p_in,label=\"0_initial_angle$ inputs: p_in\"]\n  \"0_size$\" [cul_scope_id=0,name=\"size$\",imported=size_,cul_source_scope_id=1,reason=\"explicit import\",inputs=p_in,label=\"0_size$ inputs: p_in\"]\n  \"0_random$\" [cul_scope_id=0,name=\"random$\",imported=random_,cul_source_scope_id=1,reason=\"explicit import\",inputs=\"\",label=\"0_random$ inputs: \"]\n  \"0_time\" [cul_scope_id=0,name=time,cul_source_scope_id=0,reason=definition,loc=\"[object Object]\",inputs=f_in,label=\"0_time inputs: f_in\"]\n  \"0_width\" [cul_scope_id=0,name=width,cul_source_scope_id=0,reason=definition,loc=\"[object Object]\",inputs=width_in,label=\"0_width inputs: width_in\"]\n  \"0_height\" [cul_scope_id=0,name=height,cul_source_scope_id=0,reason=definition,loc=\"[object Object]\",inputs=height_in,label=\"0_height inputs: height_in\"]\n  \"0_angle\" [cul_scope_id=0,name=angle,cul_source_scope_id=0,reason=definition,loc=\"[object Object]\",inputs=\"w_in,f_in,p_in\",label=\"0_angle inputs: w_in,f_in,p_in\"]\n  \"0_x\" [cul_scope_id=0,name=x,cul_source_scope_id=0,reason=definition,loc=\"[object Object]\",inputs=\"width_in,p_in,w_in,f_in\",label=\"0_x inputs: width_in,p_in,w_in,f_in\"]\n  \"0_y\" [cul_scope_id=0,name=y,cul_source_scope_id=0,reason=definition,loc=\"[object Object]\",inputs=\"f_in,height_in,p_in\",label=\"0_y inputs: f_in,height_in,p_in\"]\n  \"0_p\" [cul_scope_id=0,name=p,cul_source_scope_id=0,reason=definition,loc=\"[object Object]\",inputs=p_in,label=\"0_p inputs: p_in\"]\n  \"0_radius\" [cul_scope_id=0,name=radius,cul_source_scope_id=0,reason=definition,loc=\"[object Object]\",inputs=\"p_in,width_in\",label=\"0_radius inputs: p_in,width_in\"]\n  \"0_initial_angle\" [cul_scope_id=0,name=initial_angle,cul_source_scope_id=0,reason=definition,loc=\"[object Object]\",inputs=p_in,label=\"0_initial_angle inputs: p_in\"]\n  \"0_size\" [cul_scope_id=0,name=size,cul_source_scope_id=0,reason=definition,loc=\"[object Object]\",inputs=p_in,label=\"0_size inputs: p_in\"]\n  \"0_random\" [cul_scope_id=0,name=random,cul_source_scope_id=0,reason=definition,loc=\"[object Object]\",inputs=\"\",label=\"0_random inputs: \"]\n  \"1_time\" [cul_scope_id=1,name=time,cul_source_scope_id=0,reason=\"implicit import\",inputs=f_in,label=\"1_time inputs: f_in\"]\n  \"1_width\" [cul_scope_id=1,name=width,cul_source_scope_id=0,reason=\"implicit import\",inputs=width_in,label=\"1_width inputs: width_in\"]\n  \"1_height\" [cul_scope_id=1,name=height,cul_source_scope_id=0,reason=\"implicit import\",inputs=height_in,label=\"1_height inputs: height_in\"]\n  \"1_angle\" [cul_scope_id=1,name=angle,cul_source_scope_id=0,reason=\"implicit import\",inputs=\"w_in,f_in,p_in\",label=\"1_angle inputs: w_in,f_in,p_in\"]\n  \"1_x\" [cul_scope_id=1,name=x,cul_source_scope_id=0,reason=\"implicit import\",inputs=\"width_in,p_in,w_in,f_in\",label=\"1_x inputs: width_in,p_in,w_in,f_in\"]\n  \"1_y\" [cul_scope_id=1,name=y,cul_source_scope_id=0,reason=\"implicit import\",inputs=\"f_in,height_in,p_in\",label=\"1_y inputs: f_in,height_in,p_in\"]\n  \"1_p\" [cul_scope_id=1,name=p,cul_source_scope_id=0,reason=\"implicit import\",inputs=p_in,label=\"1_p inputs: p_in\"]\n  \"1_radius\" [cul_scope_id=1,name=radius,cul_source_scope_id=0,reason=\"implicit import\",inputs=\"p_in,width_in\",label=\"1_radius inputs: p_in,width_in\"]\n  \"1_initial_angle\" [cul_scope_id=1,name=initial_angle,cul_source_scope_id=0,reason=\"implicit import\",inputs=p_in,label=\"1_initial_angle inputs: p_in\"]\n  \"1_size\" [cul_scope_id=1,name=size,cul_source_scope_id=0,reason=\"implicit import\",inputs=p_in,label=\"1_size inputs: p_in\"]\n  \"1_random\" [cul_scope_id=1,name=random,cul_source_scope_id=0,reason=\"implicit import\",inputs=\"\",label=\"1_random inputs: \"]\n  \"1_time_\" [cul_scope_id=1,name=time_,imported=time_,cul_source_scope_id=2,reason=\"explicit import (renamed)\",inputs=f_in,label=\"1_time_ inputs: f_in\"]\n  \"1_width_\" [cul_scope_id=1,name=width_,imported=width_,cul_source_scope_id=2,reason=\"explicit import (renamed)\",inputs=width_in,label=\"1_width_ inputs: width_in\"]\n  \"1_height_\" [cul_scope_id=1,name=height_,imported=height_,cul_source_scope_id=2,reason=\"explicit import (renamed)\",inputs=height_in,label=\"1_height_ inputs: height_in\"]\n  \"1_angle_\" [cul_scope_id=1,name=angle_,imported=angle_,cul_source_scope_id=2,reason=\"explicit import (renamed)\",inputs=\"w_in,f_in,p_in\",label=\"1_angle_ inputs: w_in,f_in,p_in\"]\n  \"1_x_\" [cul_scope_id=1,name=x_,imported=x_,cul_source_scope_id=2,reason=\"explicit import (renamed)\",inputs=\"width_in,p_in,w_in,f_in\",label=\"1_x_ inputs: width_in,p_in,w_in,f_in\"]\n  \"1_y_\" [cul_scope_id=1,name=y_,imported=y_,cul_source_scope_id=2,reason=\"explicit import (renamed)\",inputs=\"f_in,height_in,p_in\",label=\"1_y_ inputs: f_in,height_in,p_in\"]\n  \"1_p_\" [cul_scope_id=1,name=p_,imported=p_,cul_source_scope_id=2,reason=\"explicit import (renamed)\",inputs=p_in,label=\"1_p_ inputs: p_in\"]\n  \"1_radius_\" [cul_scope_id=1,name=radius_,cul_source_scope_id=1,reason=\"definition (renamed)\",loc=\"[object Object]\",inputs=\"p_in,width_in\",label=\"1_radius_ inputs: p_in,width_in\"]\n  \"1_initial_angle_\" [cul_scope_id=1,name=initial_angle_,cul_source_scope_id=1,reason=\"definition (renamed)\",loc=\"[object Object]\",inputs=p_in,label=\"1_initial_angle_ inputs: p_in\"]\n  \"1_size_\" [cul_scope_id=1,name=size_,cul_source_scope_id=1,reason=\"definition (renamed)\",loc=\"[object Object]\",inputs=p_in,label=\"1_size_ inputs: p_in\"]\n  \"1_random_\" [cul_scope_id=1,name=random_,cul_source_scope_id=1,reason=\"definition (renamed)\",loc=\"[object Object]\",inputs=\"\",label=\"1_random_ inputs: \"]\n  \"2_time\" [cul_scope_id=2,name=time,cul_source_scope_id=0,reason=\"implicit import\",inputs=f_in,label=\"2_time inputs: f_in\"]\n  \"2_width\" [cul_scope_id=2,name=width,cul_source_scope_id=0,reason=\"implicit import\",inputs=width_in,label=\"2_width inputs: width_in\"]\n  \"2_height\" [cul_scope_id=2,name=height,cul_source_scope_id=0,reason=\"implicit import\",inputs=height_in,label=\"2_height inputs: height_in\"]\n  \"2_angle\" [cul_scope_id=2,name=angle,cul_source_scope_id=0,reason=\"implicit import\",inputs=\"w_in,f_in,p_in\",label=\"2_angle inputs: w_in,f_in,p_in\"]\n  \"2_x\" [cul_scope_id=2,name=x,cul_source_scope_id=0,reason=\"implicit import\",inputs=\"width_in,p_in,w_in,f_in\",label=\"2_x inputs: width_in,p_in,w_in,f_in\"]\n  \"2_y\" [cul_scope_id=2,name=y,cul_source_scope_id=0,reason=\"implicit import\",inputs=\"f_in,height_in,p_in\",label=\"2_y inputs: f_in,height_in,p_in\"]\n  \"2_p\" [cul_scope_id=2,name=p,cul_source_scope_id=0,reason=\"implicit import\",inputs=p_in,label=\"2_p inputs: p_in\"]\n  \"2_radius\" [cul_scope_id=2,name=radius,cul_source_scope_id=0,reason=\"implicit import\",inputs=\"p_in,width_in\",label=\"2_radius inputs: p_in,width_in\"]\n  \"2_initial_angle\" [cul_scope_id=2,name=initial_angle,cul_source_scope_id=0,reason=\"implicit import\",inputs=p_in,label=\"2_initial_angle inputs: p_in\"]\n  \"2_size\" [cul_scope_id=2,name=size,cul_source_scope_id=0,reason=\"implicit import\",inputs=p_in,label=\"2_size inputs: p_in\"]\n  \"2_random\" [cul_scope_id=2,name=random,cul_source_scope_id=0,reason=\"implicit import\",inputs=\"\",label=\"2_random inputs: \"]\n  \"2_angle$\" [cul_scope_id=2,name=\"angle$\",imported=angle_,cul_source_scope_id=3,reason=\"explicit import\",inputs=\"w_in,f_in,p_in\",label=\"2_angle$ inputs: w_in,f_in,p_in\"]\n  \"2_x$\" [cul_scope_id=2,name=\"x$\",imported=x_,cul_source_scope_id=3,reason=\"explicit import\",inputs=\"width_in,p_in,w_in,f_in\",label=\"2_x$ inputs: width_in,p_in,w_in,f_in\"]\n  \"2_y$\" [cul_scope_id=2,name=\"y$\",imported=y_,cul_source_scope_id=3,reason=\"explicit import\",inputs=\"f_in,height_in,p_in\",label=\"2_y$ inputs: f_in,height_in,p_in\"]\n  \"2_time$\" [cul_scope_id=2,name=\"time$\",imported=time_,cul_source_scope_id=3,reason=\"explicit import\",inputs=f_in,label=\"2_time$ inputs: f_in\"]\n  \"2_p$\" [cul_scope_id=2,name=\"p$\",imported=p_,cul_source_scope_id=3,reason=\"explicit import\",inputs=p_in,label=\"2_p$ inputs: p_in\"]\n  \"2_f$\" [cul_scope_id=2,name=\"f$\",imported=f_,cul_source_scope_id=3,reason=\"explicit import\",inputs=f_in,label=\"2_f$ inputs: f_in\"]\n  \"2_w$\" [cul_scope_id=2,name=\"w$\",imported=w_,cul_source_scope_id=3,reason=\"explicit import\",inputs=w_in,label=\"2_w$ inputs: w_in\"]\n  \"2_radius$\" [cul_scope_id=2,name=\"radius$\",imported=radius_,cul_source_scope_id=3,reason=\"explicit import\",inputs=radius_in,label=\"2_radius$ inputs: radius_in\"]\n  \"2_initial_angle$\" [cul_scope_id=2,name=\"initial_angle$\",imported=initial_angle_,cul_source_scope_id=3,reason=\"explicit import\",inputs=initial_angle_in,label=\"2_initial_angle$ inputs: initial_angle_in\"]\n  \"2_size$\" [cul_scope_id=2,name=\"size$\",imported=size_,cul_source_scope_id=3,reason=\"explicit import\",inputs=size_in,label=\"2_size$ inputs: size_in\"]\n  \"2_width$\" [cul_scope_id=2,name=\"width$\",imported=width_,cul_source_scope_id=3,reason=\"explicit import\",inputs=width_in,label=\"2_width$ inputs: width_in\"]\n  \"2_height$\" [cul_scope_id=2,name=\"height$\",imported=height_,cul_source_scope_id=3,reason=\"explicit import\",inputs=height_in,label=\"2_height$ inputs: height_in\"]\n  \"2_angle_\" [cul_scope_id=2,name=angle_,cul_source_scope_id=2,reason=\"definition (renamed)\",loc=\"[object Object]\",inputs=\"w_in,f_in,p_in\",label=\"2_angle_ inputs: w_in,f_in,p_in\"]\n  \"2_x_\" [cul_scope_id=2,name=x_,cul_source_scope_id=2,reason=\"definition (renamed)\",loc=\"[object Object]\",inputs=\"width_in,p_in,w_in,f_in\",label=\"2_x_ inputs: width_in,p_in,w_in,f_in\"]\n  \"2_y_\" [cul_scope_id=2,name=y_,cul_source_scope_id=2,reason=\"definition (renamed)\",loc=\"[object Object]\",inputs=\"f_in,height_in,p_in\",label=\"2_y_ inputs: f_in,height_in,p_in\"]\n  \"2_time_\" [cul_scope_id=2,name=time_,cul_source_scope_id=2,reason=\"definition (renamed)\",loc=\"[object Object]\",inputs=f_in,label=\"2_time_ inputs: f_in\"]\n  \"2_p_\" [cul_scope_id=2,name=p_,cul_source_scope_id=2,reason=\"definition (renamed)\",loc=\"[object Object]\",inputs=p_in,label=\"2_p_ inputs: p_in\"]\n  \"2_f\" [cul_scope_id=2,name=f,cul_source_scope_id=2,reason=definition,loc=\"[object Object]\",inputs=f_in,label=\"2_f inputs: f_in\"]\n  \"2_w\" [cul_scope_id=2,name=w,cul_source_scope_id=2,reason=definition,loc=\"[object Object]\",inputs=w_in,label=\"2_w inputs: w_in\"]\n  \"2_radius_\" [cul_scope_id=2,name=radius_,cul_source_scope_id=2,reason=\"definition (renamed)\",loc=\"[object Object]\",inputs=radius_in,label=\"2_radius_ inputs: radius_in\"]\n  \"2_initial_angle_\" [cul_scope_id=2,name=initial_angle_,cul_source_scope_id=2,reason=\"definition (renamed)\",loc=\"[object Object]\",inputs=initial_angle_in,label=\"2_initial_angle_ inputs: initial_angle_in\"]\n  \"2_size_\" [cul_scope_id=2,name=size_,cul_source_scope_id=2,reason=\"definition (renamed)\",loc=\"[object Object]\",inputs=size_in,label=\"2_size_ inputs: size_in\"]\n  \"2_width_\" [cul_scope_id=2,name=width_,cul_source_scope_id=2,reason=\"definition (renamed)\",loc=\"[object Object]\",inputs=width_in,label=\"2_width_ inputs: width_in\"]\n  \"2_height_\" [cul_scope_id=2,name=height_,cul_source_scope_id=2,reason=\"definition (renamed)\",loc=\"[object Object]\",inputs=height_in,label=\"2_height_ inputs: height_in\"]\n  \"3_time\" [cul_scope_id=3,name=time,cul_source_scope_id=0,reason=\"implicit import\",inputs=f_in,label=\"3_time inputs: f_in\"]\n  \"3_width\" [cul_scope_id=3,name=width,cul_source_scope_id=0,reason=\"implicit import\",inputs=width_in,label=\"3_width inputs: width_in\"]\n  \"3_height\" [cul_scope_id=3,name=height,cul_source_scope_id=0,reason=\"implicit import\",inputs=height_in,label=\"3_height inputs: height_in\"]\n  \"3_angle\" [cul_scope_id=3,name=angle,cul_source_scope_id=0,reason=\"implicit import\",inputs=\"w_in,f_in,p_in\",label=\"3_angle inputs: w_in,f_in,p_in\"]\n  \"3_x\" [cul_scope_id=3,name=x,cul_source_scope_id=0,reason=\"implicit import\",inputs=\"width_in,p_in,w_in,f_in\",label=\"3_x inputs: width_in,p_in,w_in,f_in\"]\n  \"3_y\" [cul_scope_id=3,name=y,cul_source_scope_id=0,reason=\"implicit import\",inputs=\"f_in,height_in,p_in\",label=\"3_y inputs: f_in,height_in,p_in\"]\n  \"3_p\" [cul_scope_id=3,name=p,cul_source_scope_id=0,reason=\"implicit import\",inputs=p_in,label=\"3_p inputs: p_in\"]\n  \"3_radius\" [cul_scope_id=3,name=radius,cul_source_scope_id=0,reason=\"implicit import\",inputs=\"p_in,width_in\",label=\"3_radius inputs: p_in,width_in\"]\n  \"3_initial_angle\" [cul_scope_id=3,name=initial_angle,cul_source_scope_id=0,reason=\"implicit import\",inputs=p_in,label=\"3_initial_angle inputs: p_in\"]\n  \"3_size\" [cul_scope_id=3,name=size,cul_source_scope_id=0,reason=\"implicit import\",inputs=p_in,label=\"3_size inputs: p_in\"]\n  \"3_random\" [cul_scope_id=3,name=random,cul_source_scope_id=0,reason=\"implicit import\",inputs=\"\",label=\"3_random inputs: \"]\n  \"3_f\" [cul_scope_id=3,name=f,cul_source_scope_id=2,reason=\"implicit import\",inputs=f_in,label=\"3_f inputs: f_in\"]\n  \"3_w\" [cul_scope_id=3,name=w,cul_source_scope_id=2,reason=\"implicit import\",inputs=w_in,label=\"3_w inputs: w_in\"]\n  \"3_angle_\" [cul_scope_id=3,name=angle_,cul_source_scope_id=3,reason=\"definition (renamed)\",loc=\"[object Object]\",inputs=\"w_in,f_in,p_in\",label=\"3_angle_ inputs: w_in,f_in,p_in\"]\n  \"3_x_\" [cul_scope_id=3,name=x_,cul_source_scope_id=3,reason=\"definition (renamed)\",loc=\"[object Object]\",inputs=\"width_in,p_in,w_in,f_in\",label=\"3_x_ inputs: width_in,p_in,w_in,f_in\"]\n  \"3_y_\" [cul_scope_id=3,name=y_,cul_source_scope_id=3,reason=\"definition (renamed)\",loc=\"[object Object]\",inputs=\"f_in,height_in,p_in\",label=\"3_y_ inputs: f_in,height_in,p_in\"]\n  \"3_time_\" [cul_scope_id=3,name=time_,cul_source_scope_id=3,reason=\"definition (renamed)\",loc=\"[object Object]\",inputs=f_in,label=\"3_time_ inputs: f_in\"]\n  \"3_p_\" [cul_scope_id=3,name=p_,cul_source_scope_id=3,reason=\"definition (renamed)\",loc=\"[object Object]\",inputs=p_in,label=\"3_p_ inputs: p_in\"]\n  \"3_p_in\" [cul_scope_id=3,name=p_in,cul_source_scope_id=3,reason=\"input definition\",inputs=p_in,label=\"3_p_in inputs: p_in\"]\n  \"3_f_\" [cul_scope_id=3,name=f_,cul_source_scope_id=3,reason=\"definition (renamed)\",loc=\"[object Object]\",inputs=f_in,label=\"3_f_ inputs: f_in\"]\n  \"3_f_in\" [cul_scope_id=3,name=f_in,cul_source_scope_id=3,reason=\"input definition\",inputs=f_in,label=\"3_f_in inputs: f_in\"]\n  \"3_w_\" [cul_scope_id=3,name=w_,cul_source_scope_id=3,reason=\"definition (renamed)\",loc=\"[object Object]\",inputs=w_in,label=\"3_w_ inputs: w_in\"]\n  \"3_w_in\" [cul_scope_id=3,name=w_in,cul_source_scope_id=3,reason=\"input definition\",inputs=w_in,label=\"3_w_in inputs: w_in\"]\n  \"3_radius_\" [cul_scope_id=3,name=radius_,cul_source_scope_id=3,reason=\"definition (renamed)\",loc=\"[object Object]\",inputs=radius_in,label=\"3_radius_ inputs: radius_in\"]\n  \"3_radius_in\" [cul_scope_id=3,name=radius_in,cul_source_scope_id=3,reason=\"input definition\",inputs=radius_in,label=\"3_radius_in inputs: radius_in\"]\n  \"3_initial_angle_\" [cul_scope_id=3,name=initial_angle_,cul_source_scope_id=3,reason=\"definition (renamed)\",loc=\"[object Object]\",inputs=initial_angle_in,label=\"3_initial_angle_ inputs: initial_angle_in\"]\n  \"3_initial_angle_in\" [cul_scope_id=3,name=initial_angle_in,cul_source_scope_id=3,reason=\"input definition\",inputs=initial_angle_in,label=\"3_initial_angle_in inputs: initial_angle_in\"]\n  \"3_size_\" [cul_scope_id=3,name=size_,cul_source_scope_id=3,reason=\"definition (renamed)\",loc=\"[object Object]\",inputs=size_in,label=\"3_size_ inputs: size_in\"]\n  \"3_size_in\" [cul_scope_id=3,name=size_in,cul_source_scope_id=3,reason=\"input definition\",inputs=size_in,label=\"3_size_in inputs: size_in\"]\n  \"3_width_\" [cul_scope_id=3,name=width_,cul_source_scope_id=3,reason=\"definition (renamed)\",loc=\"[object Object]\",inputs=width_in,label=\"3_width_ inputs: width_in\"]\n  \"3_width_in\" [cul_scope_id=3,name=width_in,cul_source_scope_id=3,reason=\"input definition\",inputs=width_in,label=\"3_width_in inputs: width_in\"]\n  \"3_height_\" [cul_scope_id=3,name=height_,cul_source_scope_id=3,reason=\"definition (renamed)\",loc=\"[object Object]\",inputs=height_in,label=\"3_height_ inputs: height_in\"]\n  \"3_height_in\" [cul_scope_id=3,name=height_in,cul_source_scope_id=3,reason=\"input definition\",inputs=height_in,label=\"3_height_in inputs: height_in\"]\n  \"1_time_\" -> \"0_time$\" [value=\"[object Object]\",label=\"explicit import\"]\n  \"1_width_\" -> \"0_width$\" [value=\"[object Object]\",label=\"explicit import\"]\n  \"1_height_\" -> \"0_height$\" [value=\"[object Object]\",label=\"explicit import\"]\n  \"1_angle_\" -> \"0_angle$\" [value=\"[object Object]\",label=\"explicit import\"]\n  \"1_x_\" -> \"0_x$\" [value=\"[object Object]\",label=\"explicit import\"]\n  \"1_y_\" -> \"0_y$\" [value=\"[object Object]\",label=\"explicit import\"]\n  \"1_p_\" -> \"0_p$\" [value=\"[object Object]\",label=\"explicit import\"]\n  \"1_radius_\" -> \"0_radius$\" [value=\"[object Object]\",label=\"explicit import\"]\n  \"1_initial_angle_\" -> \"0_initial_angle$\" [value=\"[object Object]\",label=\"explicit import\"]\n  \"1_size_\" -> \"0_size$\" [value=\"[object Object]\",label=\"explicit import\"]\n  \"1_random_\" -> \"0_random$\" [value=\"[object Object]\",label=\"explicit import\"]\n  \"0_time$\" -> \"0_time\" [value=\"[object Object]\",label=\"call -\"]\n  \"0_width$\" -> \"0_width\" [value=\"[object Object]\",label=\"call -\"]\n  \"0_height$\" -> \"0_height\" [value=\"[object Object]\",label=\"call -\"]\n  \"0_angle$\" -> \"0_angle\" [value=\"[object Object]\",label=\"call -\"]\n  \"0_x$\" -> \"0_x\" [value=\"[object Object]\",label=\"call -\"]\n  \"0_y$\" -> \"0_y\" [value=\"[object Object]\",label=\"call -\"]\n  \"0_p$\" -> \"0_p\" [value=\"[object Object]\",label=\"call -\"]\n  \"0_radius$\" -> \"0_radius\" [value=\"[object Object]\",label=\"call -\"]\n  \"0_initial_angle$\" -> \"0_initial_angle\" [value=\"[object Object]\",label=\"call -\"]\n  \"0_size$\" -> \"0_size\" [value=\"[object Object]\",label=\"call -\"]\n  \"0_random$\" -> \"0_random\" [value=\"[object Object]\",label=\"call -\"]\n  \"0_time\" -> \"1_time\" [value=\"[object Object]\",label=\"implicit import\"]\n  \"0_width\" -> \"1_width\" [value=\"[object Object]\",label=\"implicit import\"]\n  \"0_height\" -> \"1_height\" [value=\"[object Object]\",label=\"implicit import\"]\n  \"0_angle\" -> \"1_angle\" [value=\"[object Object]\",label=\"implicit import\"]\n  \"0_x\" -> \"1_x\" [value=\"[object Object]\",label=\"implicit import\"]\n  \"0_y\" -> \"1_y\" [value=\"[object Object]\",label=\"implicit import\"]\n  \"0_p\" -> \"1_p\" [value=\"[object Object]\",label=\"implicit import\"]\n  \"0_radius\" -> \"1_radius\" [value=\"[object Object]\",label=\"implicit import\"]\n  \"0_initial_angle\" -> \"1_initial_angle\" [value=\"[object Object]\",label=\"implicit import\"]\n  \"0_size\" -> \"1_size\" [value=\"[object Object]\",label=\"implicit import\"]\n  \"0_random\" -> \"1_random\" [value=\"[object Object]\",label=\"implicit import\"]\n  \"2_time_\" -> \"1_time_\" [value=\"[object Object]\",label=\"explicit import (renamed)\"]\n  \"2_width_\" -> \"1_width_\" [value=\"[object Object]\",label=\"explicit import (renamed)\"]\n  \"2_height_\" -> \"1_height_\" [value=\"[object Object]\",label=\"explicit import (renamed)\"]\n  \"2_angle_\" -> \"1_angle_\" [value=\"[object Object]\",label=\"explicit import (renamed)\"]\n  \"2_x_\" -> \"1_x_\" [value=\"[object Object]\",label=\"explicit import (renamed)\"]\n  \"2_y_\" -> \"1_y_\" [value=\"[object Object]\",label=\"explicit import (renamed)\"]\n  \"2_p_\" -> \"1_p_\" [value=\"[object Object]\",label=\"explicit import (renamed)\"]\n  \"1_random\" -> \"1_radius_\" [value=\"[object Object]\",label=\"call -p_in\"]\n  \"1_p\" -> \"1_radius_\" [value=\"[object Object]\",label=\"call -\"]\n  \"1_width\" -> \"1_radius_\" [value=\"[object Object]\",label=\"call -\"]\n  \"1_random\" -> \"1_initial_angle_\" [value=\"[object Object]\",label=\"call -p_in,v\"]\n  \"1_p\" -> \"1_initial_angle_\" [value=\"[object Object]\",label=\"call -\"]\n  \"1_random\" -> \"1_size_\" [value=\"[object Object]\",label=\"call -p_in,v\"]\n  \"1_p\" -> \"1_size_\" [value=\"[object Object]\",label=\"call -\"]\n  \"0_time\" -> \"2_time\" [value=\"[object Object]\",label=\"implicit import\"]\n  \"0_width\" -> \"2_width\" [value=\"[object Object]\",label=\"implicit import\"]\n  \"0_height\" -> \"2_height\" [value=\"[object Object]\",label=\"implicit import\"]\n  \"0_angle\" -> \"2_angle\" [value=\"[object Object]\",label=\"implicit import\"]\n  \"0_x\" -> \"2_x\" [value=\"[object Object]\",label=\"implicit import\"]\n  \"0_y\" -> \"2_y\" [value=\"[object Object]\",label=\"implicit import\"]\n  \"0_p\" -> \"2_p\" [value=\"[object Object]\",label=\"implicit import\"]\n  \"0_radius\" -> \"2_radius\" [value=\"[object Object]\",label=\"implicit import\"]\n  \"0_initial_angle\" -> \"2_initial_angle\" [value=\"[object Object]\",label=\"implicit import\"]\n  \"0_size\" -> \"2_size\" [value=\"[object Object]\",label=\"implicit import\"]\n  \"0_random\" -> \"2_random\" [value=\"[object Object]\",label=\"implicit import\"]\n  \"3_angle_\" -> \"2_angle$\" [value=\"[object Object]\",label=\"explicit import\"]\n  \"3_x_\" -> \"2_x$\" [value=\"[object Object]\",label=\"explicit import\"]\n  \"3_y_\" -> \"2_y$\" [value=\"[object Object]\",label=\"explicit import\"]\n  \"3_time_\" -> \"2_time$\" [value=\"[object Object]\",label=\"explicit import\"]\n  \"3_p_\" -> \"2_p$\" [value=\"[object Object]\",label=\"explicit import\"]\n  \"3_f_\" -> \"2_f$\" [value=\"[object Object]\",label=\"explicit import\"]\n  \"3_w_\" -> \"2_w$\" [value=\"[object Object]\",label=\"explicit import\"]\n  \"3_radius_\" -> \"2_radius$\" [value=\"[object Object]\",label=\"explicit import\"]\n  \"3_initial_angle_\" -> \"2_initial_angle$\" [value=\"[object Object]\",label=\"explicit import\"]\n  \"3_size_\" -> \"2_size$\" [value=\"[object Object]\",label=\"explicit import\"]\n  \"3_width_\" -> \"2_width$\" [value=\"[object Object]\",label=\"explicit import\"]\n  \"3_height_\" -> \"2_height$\" [value=\"[object Object]\",label=\"explicit import\"]\n  \"2_angle$\" -> \"2_angle_\" [value=\"[object Object]\",label=\"call -\"]\n  \"2_x$\" -> \"2_x_\" [value=\"[object Object]\",label=\"call -\"]\n  \"2_y$\" -> \"2_y_\" [value=\"[object Object]\",label=\"call -\"]\n  \"2_time$\" -> \"2_time_\" [value=\"[object Object]\",label=\"call -\"]\n  \"2_p$\" -> \"2_p_\" [value=\"[object Object]\",label=\"call -\"]\n  \"2_f$\" -> \"2_f\" [value=\"[object Object]\",label=\"call -\"]\n  \"2_w$\" -> \"2_w\" [value=\"[object Object]\",label=\"call -\"]\n  \"2_radius$\" -> \"2_radius_\" [value=\"[object Object]\",label=\"call -\"]\n  \"2_initial_angle$\" -> \"2_initial_angle_\" [value=\"[object Object]\",label=\"call -\"]\n  \"2_size$\" -> \"2_size_\" [value=\"[object Object]\",label=\"call -\"]\n  \"2_width$\" -> \"2_width_\" [value=\"[object Object]\",label=\"call -\"]\n  \"2_height$\" -> \"2_height_\" [value=\"[object Object]\",label=\"call -\"]\n  \"0_time\" -> \"3_time\" [value=\"[object Object]\",label=\"implicit import\"]\n  \"0_width\" -> \"3_width\" [value=\"[object Object]\",label=\"implicit import\"]\n  \"0_height\" -> \"3_height\" [value=\"[object Object]\",label=\"implicit import\"]\n  \"0_angle\" -> \"3_angle\" [value=\"[object Object]\",label=\"implicit import\"]\n  \"0_x\" -> \"3_x\" [value=\"[object Object]\",label=\"implicit import\"]\n  \"0_y\" -> \"3_y\" [value=\"[object Object]\",label=\"implicit import\"]\n  \"0_p\" -> \"3_p\" [value=\"[object Object]\",label=\"implicit import\"]\n  \"0_radius\" -> \"3_radius\" [value=\"[object Object]\",label=\"implicit import\"]\n  \"0_initial_angle\" -> \"3_initial_angle\" [value=\"[object Object]\",label=\"implicit import\"]\n  \"0_size\" -> \"3_size\" [value=\"[object Object]\",label=\"implicit import\"]\n  \"0_random\" -> \"3_random\" [value=\"[object Object]\",label=\"implicit import\"]\n  \"2_f\" -> \"3_f\" [value=\"[object Object]\",label=\"implicit import\"]\n  \"2_w\" -> \"3_w\" [value=\"[object Object]\",label=\"implicit import\"]\n  \"3_w\" -> \"3_angle_\" [value=\"[object Object]\",label=\"call -\"]\n  \"3_time\" -> \"3_angle_\" [value=\"[object Object]\",label=\"call -\"]\n  \"3_initial_angle\" -> \"3_angle_\" [value=\"[object Object]\",label=\"call -\"]\n  \"3_width\" -> \"3_x_\" [value=\"[object Object]\",label=\"call -\"]\n  \"3_radius\" -> \"3_x_\" [value=\"[object Object]\",label=\"call -\"]\n  \"3_angle\" -> \"3_x_\" [value=\"[object Object]\",label=\"call -\"]\n  \"3_f\" -> \"3_y_\" [value=\"[object Object]\",label=\"call -\"]\n  \"3_y\" -> \"3_y_\" [value=\"[object Object]\",label=\"call -f_in\"]\n  \"3_height\" -> \"3_y_\" [value=\"[object Object]\",label=\"call -\"]\n  \"3_size\" -> \"3_y_\" [value=\"[object Object]\",label=\"call -\"]\n  \"3_f\" -> \"3_time_\" [value=\"[object Object]\",label=\"call -\"]\n  \"3_p_in\" -> \"3_p_\" [value=\"[object Object]\",label=\"input +p_in\"]\n  \"3_f_in\" -> \"3_f_\" [value=\"[object Object]\",label=\"input +f_in\"]\n  \"3_w_in\" -> \"3_w_\" [value=\"[object Object]\",label=\"input +w_in\"]\n  \"3_radius_in\" -> \"3_radius_\" [value=\"[object Object]\",label=\"input +radius_in\"]\n  \"3_initial_angle_in\" -> \"3_initial_angle_\" [value=\"[object Object]\",label=\"input +initial_angle_in\"]\n  \"3_size_in\" -> \"3_size_\" [value=\"[object Object]\",label=\"input +size_in\"]\n  \"3_width_in\" -> \"3_width_\" [value=\"[object Object]\",label=\"input +width_in\"]\n  \"3_height_in\" -> \"3_height_\" [value=\"[object Object]\",label=\"input +height_in\"]\n}\n",
  "memo_map": {
    "0": 0,
    "2": 1
  }
}