{
  "cul_functions": {
    "0_sales": {
      "cul_scope_id": 0,
      "name": "sales",
      "cul_source_scope_id": 0,
      "reason": "definition",
      "loc": {
        "start": {
          "line": 2,
          "column": 21,
          "index": 46
        },
        "end": {
          "line": 3,
          "column": 25,
          "index": 77
        }
      },
      "inputs": [
        "units_in",
        "sales_price_in"
      ]
    },
    "0_purchases": {
      "cul_scope_id": 0,
      "name": "purchases",
      "cul_source_scope_id": 0,
      "reason": "definition",
      "loc": {
        "start": {
          "line": 5,
          "column": 25,
          "index": 105
        },
        "end": {
          "line": 6,
          "column": 28,
          "index": 139
        }
      },
      "inputs": [
        "units_in",
        "purchase_price_in"
      ]
    },
    "0_profit": {
      "cul_scope_id": 0,
      "name": "profit",
      "cul_source_scope_id": 0,
      "reason": "definition",
      "loc": {
        "start": {
          "line": 8,
          "column": 22,
          "index": 164
        },
        "end": {
          "line": 9,
          "column": 36,
          "index": 206
        }
      },
      "inputs": [
        "units_in",
        "sales_price_in",
        "purchase_price_in",
        "expenses_in"
      ]
    },
    "0_sales_price": {
      "cul_scope_id": 0,
      "name": "sales_price",
      "cul_source_scope_id": 0,
      "reason": "definition",
      "loc": {
        "start": {
          "line": 12,
          "column": 27,
          "index": 247
        },
        "end": {
          "line": 12,
          "column": 47,
          "index": 267
        }
      },
      "inputs": [
        "sales_price_in"
      ]
    },
    "0_sales_price_in": {
      "cul_scope_id": 0,
      "name": "sales_price_in",
      "cul_source_scope_id": 0,
      "reason": "input definition",
      "inputs": [
        "sales_price_in"
      ]
    },
    "0_purchase_price": {
      "cul_scope_id": 0,
      "name": "purchase_price",
      "cul_source_scope_id": 0,
      "reason": "definition",
      "loc": {
        "start": {
          "line": 13,
          "column": 30,
          "index": 299
        },
        "end": {
          "line": 13,
          "column": 53,
          "index": 322
        }
      },
      "inputs": [
        "purchase_price_in"
      ]
    },
    "0_purchase_price_in": {
      "cul_scope_id": 0,
      "name": "purchase_price_in",
      "cul_source_scope_id": 0,
      "reason": "input definition",
      "inputs": [
        "purchase_price_in"
      ]
    },
    "0_units": {
      "cul_scope_id": 0,
      "name": "units",
      "cul_source_scope_id": 0,
      "reason": "definition",
      "loc": {
        "start": {
          "line": 14,
          "column": 21,
          "index": 345
        },
        "end": {
          "line": 14,
          "column": 35,
          "index": 359
        }
      },
      "inputs": [
        "units_in"
      ]
    },
    "0_units_in": {
      "cul_scope_id": 0,
      "name": "units_in",
      "cul_source_scope_id": 0,
      "reason": "input definition",
      "inputs": [
        "units_in"
      ]
    },
    "0_expenses": {
      "cul_scope_id": 0,
      "name": "expenses",
      "cul_source_scope_id": 0,
      "reason": "definition",
      "loc": {
        "start": {
          "line": 15,
          "column": 24,
          "index": 385
        },
        "end": {
          "line": 15,
          "column": 41,
          "index": 402
        }
      },
      "inputs": [
        "expenses_in"
      ]
    },
    "0_expenses_in": {
      "cul_scope_id": 0,
      "name": "expenses_in",
      "cul_source_scope_id": 0,
      "reason": "input definition",
      "inputs": [
        "expenses_in"
      ]
    }
  },
  "cul_links": [
    {
      "to": "0_sales",
      "from": "0_units",
      "reason": "call",
      "negs": [],
      "loc": {
        "start": {
          "line": 3,
          "column": 2,
          "index": 54
        },
        "end": {
          "line": 3,
          "column": 9,
          "index": 61
        }
      }
    },
    {
      "to": "0_sales",
      "from": "0_sales_price",
      "reason": "call",
      "negs": [],
      "loc": {
        "start": {
          "line": 3,
          "column": 12,
          "index": 64
        },
        "end": {
          "line": 3,
          "column": 25,
          "index": 77
        }
      }
    },
    {
      "to": "0_purchases",
      "from": "0_units",
      "reason": "call",
      "negs": [],
      "loc": {
        "start": {
          "line": 6,
          "column": 2,
          "index": 113
        },
        "end": {
          "line": 6,
          "column": 9,
          "index": 120
        }
      }
    },
    {
      "to": "0_purchases",
      "from": "0_purchase_price",
      "reason": "call",
      "negs": [],
      "loc": {
        "start": {
          "line": 6,
          "column": 12,
          "index": 123
        },
        "end": {
          "line": 6,
          "column": 28,
          "index": 139
        }
      }
    },
    {
      "to": "0_profit",
      "from": "0_sales",
      "reason": "call",
      "negs": [],
      "loc": {
        "start": {
          "line": 9,
          "column": 2,
          "index": 172
        },
        "end": {
          "line": 9,
          "column": 9,
          "index": 179
        }
      }
    },
    {
      "to": "0_profit",
      "from": "0_purchases",
      "reason": "call",
      "negs": [],
      "loc": {
        "start": {
          "line": 9,
          "column": 12,
          "index": 182
        },
        "end": {
          "line": 9,
          "column": 23,
          "index": 193
        }
      }
    },
    {
      "to": "0_profit",
      "from": "0_expenses",
      "reason": "call",
      "negs": [],
      "loc": {
        "start": {
          "line": 9,
          "column": 26,
          "index": 196
        },
        "end": {
          "line": 9,
          "column": 36,
          "index": 206
        }
      }
    },
    {
      "to": "0_sales_price",
      "from": "0_sales_price_in",
      "reason": "input"
    },
    {
      "to": "0_purchase_price",
      "from": "0_purchase_price_in",
      "reason": "input"
    },
    {
      "to": "0_units",
      "from": "0_units_in",
      "reason": "input"
    },
    {
      "to": "0_expenses",
      "from": "0_expenses_in",
      "reason": "input"
    }
  ],
  "cul_scope_ids_to_resource": {
    "0": "./shop-nomemo-nomemo.cul.js"
  },
  "import_sources_to_resource": {},
  "cul_input_map": {
    "0_sales": [
      "units_in",
      "sales_price_in"
    ],
    "0_purchases": [
      "units_in",
      "purchase_price_in"
    ],
    "0_profit": [
      "units_in",
      "sales_price_in",
      "purchase_price_in",
      "expenses_in"
    ],
    "0_sales_price": [
      "sales_price_in"
    ],
    "0_sales_price_in": [
      "sales_price_in"
    ],
    "0_purchase_price": [
      "purchase_price_in"
    ],
    "0_purchase_price_in": [
      "purchase_price_in"
    ],
    "0_units": [
      "units_in"
    ],
    "0_units_in": [
      "units_in"
    ],
    "0_expenses": [
      "expenses_in"
    ],
    "0_expenses_in": [
      "expenses_in"
    ]
  },
  "dot": "digraph {\n  \"0_sales\" [cul_scope_id=0,name=sales,cul_source_scope_id=0,reason=definition,loc=\"[object Object]\",inputs=\"units_in,sales_price_in\",label=\"0_sales inputs: units_in,sales_price_in\"]\n  \"0_purchases\" [cul_scope_id=0,name=purchases,cul_source_scope_id=0,reason=definition,loc=\"[object Object]\",inputs=\"units_in,purchase_price_in\",label=\"0_purchases inputs: units_in,purchase_price_in\"]\n  \"0_profit\" [cul_scope_id=0,name=profit,cul_source_scope_id=0,reason=definition,loc=\"[object Object]\",inputs=\"units_in,sales_price_in,purchase_price_in,expenses_in\",label=\"0_profit inputs: units_in,sales_price_in,purchase_price_in,expenses_in\"]\n  \"0_sales_price\" [cul_scope_id=0,name=sales_price,cul_source_scope_id=0,reason=definition,loc=\"[object Object]\",inputs=sales_price_in,label=\"0_sales_price inputs: sales_price_in\"]\n  \"0_sales_price_in\" [cul_scope_id=0,name=sales_price_in,cul_source_scope_id=0,reason=\"input definition\",inputs=sales_price_in,label=\"0_sales_price_in inputs: sales_price_in\"]\n  \"0_purchase_price\" [cul_scope_id=0,name=purchase_price,cul_source_scope_id=0,reason=definition,loc=\"[object Object]\",inputs=purchase_price_in,label=\"0_purchase_price inputs: purchase_price_in\"]\n  \"0_purchase_price_in\" [cul_scope_id=0,name=purchase_price_in,cul_source_scope_id=0,reason=\"input definition\",inputs=purchase_price_in,label=\"0_purchase_price_in inputs: purchase_price_in\"]\n  \"0_units\" [cul_scope_id=0,name=units,cul_source_scope_id=0,reason=definition,loc=\"[object Object]\",inputs=units_in,label=\"0_units inputs: units_in\"]\n  \"0_units_in\" [cul_scope_id=0,name=units_in,cul_source_scope_id=0,reason=\"input definition\",inputs=units_in,label=\"0_units_in inputs: units_in\"]\n  \"0_expenses\" [cul_scope_id=0,name=expenses,cul_source_scope_id=0,reason=definition,loc=\"[object Object]\",inputs=expenses_in,label=\"0_expenses inputs: expenses_in\"]\n  \"0_expenses_in\" [cul_scope_id=0,name=expenses_in,cul_source_scope_id=0,reason=\"input definition\",inputs=expenses_in,label=\"0_expenses_in inputs: expenses_in\"]\n  \"0_units\" -> \"0_sales\" [value=\"[object Object]\",label=\"call -\"]\n  \"0_sales_price\" -> \"0_sales\" [value=\"[object Object]\",label=\"call -\"]\n  \"0_units\" -> \"0_purchases\" [value=\"[object Object]\",label=\"call -\"]\n  \"0_purchase_price\" -> \"0_purchases\" [value=\"[object Object]\",label=\"call -\"]\n  \"0_sales\" -> \"0_profit\" [value=\"[object Object]\",label=\"call -\"]\n  \"0_purchases\" -> \"0_profit\" [value=\"[object Object]\",label=\"call -\"]\n  \"0_expenses\" -> \"0_profit\" [value=\"[object Object]\",label=\"call -\"]\n  \"0_sales_price_in\" -> \"0_sales_price\" [value=\"[object Object]\",label=\"input +sales_price_in\"]\n  \"0_purchase_price_in\" -> \"0_purchase_price\" [value=\"[object Object]\",label=\"input +purchase_price_in\"]\n  \"0_units_in\" -> \"0_units\" [value=\"[object Object]\",label=\"input +units_in\"]\n  \"0_expenses_in\" -> \"0_expenses\" [value=\"[object Object]\",label=\"input +expenses_in\"]\n}\n",
  "memo_map": {}
}